AOI,Number of fixations,Duration of all fixations in ms,Number of visits
AOI-1,15,4200,7
AOI-10,9,1628,3
AOI-11,2,285,1
AOI-12,4,533,2
AOI-13,5,1438,3
AOI-14,7,1551,4
AOI-15,4,1211,3
AOI-16,2,207,2
AOI-17,3,614,3
AOI-18,1,305,1
AOI-2,7,1438,6
AOI-3,5,824,3
AOI-4,3,460,3
AOI-5,12,3285,4
AOI-6,8,2846,2
AOI-7,5,1031,3
AOI-8,0,0,0
AOI-9,1,373,1
Outside ,1,505,1
