,Unnamed: 0,AOI,Percentage of all fixations,Number of fixations,∅ Number of fixations,Percentage of all fixations durations,Duration of all fixations in ms,∅ Duration of all fixations in ms,Time till the first fixation,Number of visits,Seen number,Clicks count,Time to first click in ms
0,0,AOI-1,50 %,1,1,16.1 %,81,81 ms,4 ms,1,1,0,0 ms
1,1,AOI-2,50 %,1,1,83.9 %,422,422 ms,100 ms,1,1,0,0 ms
2,2,AOI-3,50 %,1,1,16.1 %,81,81 ms,4 ms,1,1,0,0 ms
3,3,AOI-4,50 %,1,1,83.9 %,422,422 ms,100 ms,1,1,0,0 ms
4,4,AOI-5,0 %,0,0,0 %,0,0 ms,0 ms,0,0,0,0 ms
5,5,AOI-6,0 %,0,0,0 %,0,0 ms,0 ms,0,0,0,0 ms
6,6,AOI-7,0 %,0,0,0 %,0,0 ms,0 ms,0,0,0,0 ms
7,7,AOI-8,0 %,0,0,0 %,0,0 ms,0 ms,0,0,0,0 ms
8,8,AOI-9,0 %,0,0,0 %,0,0 ms,0 ms,0,0,0,0 ms
9,9,AOI-10,100 %,2,2,100 %,503,503 ms,4 ms,1,1,0,0 ms
10,10,AOI-11,0 %,0,0,0 %,0,0 ms,0 ms,0,0,0,0 ms
11,11,AOI-12,0 %,0,0,0 %,0,0 ms,0 ms,0,0,0,0 ms
12,12,AOI-13,0 %,0,0,0 %,0,0 ms,0 ms,0,0,0,0 ms
13,13,AOI-14,0 %,0,0,0 %,0,0 ms,0 ms,0,0,0,0 ms
14,14,AOI-15,0 %,0,0,0 %,0,0 ms,0 ms,0,0,0,0 ms
15,15,AOI-16,100 %,2,2,100 %,503,503 ms,4 ms,1,1,0,0 ms
16,16,AOI-17,0 %,0,0,0 %,0,0 ms,0 ms,0,0,0,0 ms
17,17,AOI-18,0 %,0,0,0 %,0,0 ms,0 ms,0,0,0,0 ms
18,18,Outside ,0 %,0,0,0 %,0,0 ms,0 ms,0,0,0,0 ms
19,0,AOI-1,0 %,0,0,0 %,0,0 ms,0 ms,0,0,0,0 ms
20,1,AOI-2,0 %,0,0,0 %,0,0 ms,0 ms,0,0,0,0 ms
21,2,AOI-3,0 %,0,0,0 %,0,0 ms,0 ms,0,0,0,0 ms
22,3,AOI-4,0 %,0,0,0 %,0,0 ms,0 ms,0,0,0,0 ms
23,4,AOI-5,0 %,0,0,0 %,0,0 ms,0 ms,0,0,0,0 ms
24,5,AOI-6,0 %,0,0,0 %,0,0 ms,0 ms,0,0,0,0 ms
25,6,AOI-7,100 %,2,2,100 %,374,374 ms,56 ms,1,1,0,0 ms
26,7,AOI-8,0 %,0,0,0 %,0,0 ms,0 ms,0,0,0,0 ms
27,8,AOI-9,0 %,0,0,0 %,0,0 ms,0 ms,0,0,0,0 ms
28,9,AOI-10,0 %,0,0,0 %,0,0 ms,0 ms,0,0,0,0 ms
29,10,AOI-11,100 %,2,2,100 %,374,374 ms,56 ms,1,1,0,0 ms
30,11,AOI-12,0 %,0,0,0 %,0,0 ms,0 ms,0,0,0,0 ms
31,12,AOI-13,0 %,0,0,0 %,0,0 ms,0 ms,0,0,0,0 ms
32,13,AOI-14,0 %,0,0,0 %,0,0 ms,0 ms,0,0,0,0 ms
33,14,AOI-15,50 %,1,1,56.7 %,212,212 ms,238 ms,1,1,0,0 ms
34,15,AOI-16,50 %,1,1,56.7 %,212,212 ms,238 ms,1,1,0,0 ms
35,16,Outside ,0 %,0,0,0 %,0,0 ms,0 ms,0,0,0,0 ms
36,0,AOI-1,66.7 %,2,2,68.8 %,302,302 ms,170 ms,1,1,0,0 ms
37,1,AOI-2,33.3 %,1,1,31.2 %,137,137 ms,3 ms,1,1,0,0 ms
38,2,AOI-3,66.7 %,2,2,68.8 %,302,302 ms,170 ms,1,1,0,0 ms
39,3,AOI-4,33.3 %,1,1,31.2 %,137,137 ms,3 ms,1,1,0,0 ms
40,4,AOI-5,0 %,0,0,0 %,0,0 ms,0 ms,0,0,0,0 ms
41,5,AOI-6,0 %,0,0,0 %,0,0 ms,0 ms,0,0,0,0 ms
42,6,AOI-7,0 %,0,0,0 %,0,0 ms,0 ms,0,0,0,0 ms
43,7,AOI-8,0 %,0,0,0 %,0,0 ms,0 ms,0,0,0,0 ms
44,8,AOI-9,0 %,0,0,0 %,0,0 ms,0 ms,0,0,0,0 ms
45,9,AOI-10,100 %,3,3,100 %,439,439 ms,3 ms,1,1,0,0 ms
46,10,AOI-11,0 %,0,0,0 %,0,0 ms,0 ms,0,0,0,0 ms
47,11,AOI-12,0 %,0,0,0 %,0,0 ms,0 ms,0,0,0,0 ms
48,12,AOI-13,66.7 %,2,2,68.8 %,302,302 ms,170 ms,1,1,0,0 ms
49,13,AOI-14,0 %,0,0,0 %,0,0 ms,0 ms,0,0,0,0 ms
50,14,AOI-15,0 %,0,0,0 %,0,0 ms,0 ms,0,0,0,0 ms
51,15,AOI-16,0 %,0,0,0 %,0,0 ms,0 ms,0,0,0,0 ms
52,16,AOI-17,33.3 %,1,1,31.2 %,137,137 ms,3 ms,1,1,0,0 ms
53,17,AOI-18,0 %,0,0,0 %,0,0 ms,0 ms,0,0,0,0 ms
54,18,Outside ,0 %,0,0,0 %,0,0 ms,0 ms,0,0,0,0 ms
55,0,AOI-1,0 %,0,0,0 %,0,0 ms,0 ms,0,0,0,0 ms
56,1,AOI-2,0 %,0,0,0 %,0,0 ms,0 ms,0,0,0,0 ms
57,2,AOI-3,0 %,0,0,0 %,0,0 ms,0 ms,0,0,0,0 ms
58,3,AOI-4,0 %,0,0,0 %,0,0 ms,0 ms,0,0,0,0 ms
59,4,AOI-5,0 %,0,0,0 %,0,0 ms,0 ms,0,0,0,0 ms
60,5,AOI-6,0 %,0,0,0 %,0,0 ms,0 ms,0,0,0,0 ms
61,6,AOI-7,100 %,2,2,100 %,374,374 ms,56 ms,1,1,0,0 ms
62,7,AOI-8,0 %,0,0,0 %,0,0 ms,0 ms,0,0,0,0 ms
63,8,AOI-9,0 %,0,0,0 %,0,0 ms,0 ms,0,0,0,0 ms
64,9,AOI-10,0 %,0,0,0 %,0,0 ms,0 ms,0,0,0,0 ms
65,10,AOI-11,100 %,2,2,100 %,374,374 ms,56 ms,1,1,0,0 ms
66,11,AOI-12,0 %,0,0,0 %,0,0 ms,0 ms,0,0,0,0 ms
67,12,AOI-13,0 %,0,0,0 %,0,0 ms,0 ms,0,0,0,0 ms
68,13,AOI-14,0 %,0,0,0 %,0,0 ms,0 ms,0,0,0,0 ms
69,14,AOI-15,50 %,1,1,56.7 %,212,212 ms,238 ms,1,1,0,0 ms
70,15,AOI-16,50 %,1,1,56.7 %,212,212 ms,238 ms,1,1,0,0 ms
71,16,Outside ,0 %,0,0,0 %,0,0 ms,0 ms,0,0,0,0 ms
72,0,AOI-1,100 %,2,2,100 %,302,302 ms,11 ms,1,1,0,0 ms
73,1,AOI-2,0 %,0,0,0 %,0,0 ms,0 ms,0,0,0,0 ms
74,2,AOI-3,0 %,0,0,0 %,0,0 ms,0 ms,0,0,0,0 ms
75,3,AOI-4,0 %,0,0,0 %,0,0 ms,0 ms,0,0,0,0 ms
76,4,AOI-5,0 %,0,0,0 %,0,0 ms,0 ms,0,0,0,0 ms
77,5,AOI-6,100 %,2,2,100 %,302,302 ms,11 ms,1,1,0,0 ms
78,6,AOI-7,0 %,0,0,0 %,0,0 ms,0 ms,0,0,0,0 ms
79,7,AOI-8,0 %,0,0,0 %,0,0 ms,0 ms,0,0,0,0 ms
80,8,AOI-9,0 %,0,0,0 %,0,0 ms,0 ms,0,0,0,0 ms
81,9,AOI-10,0 %,0,0,0 %,0,0 ms,0 ms,0,0,0,0 ms
82,10,AOI-11,0 %,0,0,0 %,0,0 ms,0 ms,0,0,0,0 ms
83,11,AOI-12,0 %,0,0,0 %,0,0 ms,0 ms,0,0,0,0 ms
84,12,AOI-13,0 %,0,0,0 %,0,0 ms,0 ms,0,0,0,0 ms
85,13,AOI-14,100 %,2,2,100 %,302,302 ms,11 ms,1,1,0,0 ms
86,14,AOI-15,0 %,0,0,0 %,0,0 ms,0 ms,0,0,0,0 ms
87,15,Outside ,0 %,0,0,0 %,0,0 ms,0 ms,0,0,0,0 ms
88,0,AOI-1,0 %,0,0,0 %,0,0 ms,0 ms,0,0,0,0 ms
89,1,AOI-2,0 %,0,0,0 %,0,0 ms,0 ms,0,0,0,0 ms
90,2,AOI-3,0 %,0,0,0 %,0,0 ms,0 ms,0,0,0,0 ms
91,3,AOI-4,0 %,0,0,0 %,0,0 ms,0 ms,0,0,0,0 ms
92,4,AOI-5,100 %,3,3,100 %,606,606 ms,1 ms,1,1,0,0 ms
93,5,AOI-6,0 %,0,0,0 %,0,0 ms,0 ms,0,0,0,0 ms
94,6,AOI-7,0 %,0,0,0 %,0,0 ms,0 ms,0,0,0,0 ms
95,7,AOI-8,0 %,0,0,0 %,0,0 ms,0 ms,0,0,0,0 ms
96,8,AOI-9,0 %,0,0,0 %,0,0 ms,0 ms,0,0,0,0 ms
97,9,AOI-10,100 %,3,3,100 %,606,606 ms,1 ms,1,1,0,0 ms
98,10,AOI-11,0 %,0,0,0 %,0,0 ms,0 ms,0,0,0,0 ms
99,11,AOI-12,0 %,0,0,0 %,0,0 ms,0 ms,0,0,0,0 ms
100,12,AOI-13,0 %,0,0,0 %,0,0 ms,0 ms,0,0,0,0 ms
101,13,AOI-14,0 %,0,0,0 %,0,0 ms,0 ms,0,0,0,0 ms
102,14,AOI-15,66.7 %,2,2,44.4 %,269,269 ms,1 ms,1,1,0,0 ms
103,15,AOI-16,33.3 %,1,1,55.6 %,337,337 ms,286 ms,1,1,0,0 ms
104,16,AOI-17,33.3 %,1,1,55.6 %,337,337 ms,286 ms,1,1,0,0 ms
105,17,Outside ,0 %,0,0,0 %,0,0 ms,0 ms,0,0,0,0 ms
106,0,AOI-1,50 %,1,1,71.6 %,166,166 ms,84 ms,1,1,0,0 ms
107,1,AOI-2,50 %,1,1,28.4 %,66,66 ms,4 ms,1,1,0,0 ms
108,2,AOI-3,0 %,0,0,0 %,0,0 ms,0 ms,0,0,0,0 ms
109,3,AOI-4,0 %,0,0,0 %,0,0 ms,0 ms,0,0,0,0 ms
110,4,AOI-5,0 %,0,0,0 %,0,0 ms,0 ms,0,0,0,0 ms
111,5,AOI-6,100 %,2,2,100 %,232,232 ms,4 ms,1,1,0,0 ms
112,6,AOI-7,0 %,0,0,0 %,0,0 ms,0 ms,0,0,0,0 ms
113,7,AOI-8,0 %,0,0,0 %,0,0 ms,0 ms,0,0,0,0 ms
114,8,AOI-9,0 %,0,0,0 %,0,0 ms,0 ms,0,0,0,0 ms
115,9,AOI-10,0 %,0,0,0 %,0,0 ms,0 ms,0,0,0,0 ms
116,10,AOI-11,50 %,1,1,28.4 %,66,66 ms,4 ms,1,1,0,0 ms
117,11,AOI-12,50 %,1,1,71.6 %,166,166 ms,84 ms,1,1,0,0 ms
118,12,AOI-13,0 %,0,0,0 %,0,0 ms,0 ms,0,0,0,0 ms
119,13,AOI-14,0 %,0,0,0 %,0,0 ms,0 ms,0,0,0,0 ms
120,14,AOI-15,0 %,0,0,0 %,0,0 ms,0 ms,0,0,0,0 ms
121,15,AOI-16,0 %,0,0,0 %,0,0 ms,0 ms,0,0,0,0 ms
122,16,Outside ,0 %,0,0,0 %,0,0 ms,0 ms,0,0,0,0 ms
123,0,AOI-1,0 %,0,0,0 %,0,0 ms,0 ms,0,0,0,0 ms
124,1,AOI-2,0 %,0,0,0 %,0,0 ms,0 ms,0,0,0,0 ms
125,2,AOI-3,0 %,0,0,0 %,0,0 ms,0 ms,0,0,0,0 ms
126,3,AOI-4,0 %,0,0,0 %,0,0 ms,0 ms,0,0,0,0 ms
127,4,AOI-5,100 %,4,4,100 %,1136,"1,136 ms",1 ms,1,1,0,0 ms
128,5,AOI-6,0 %,0,0,0 %,0,0 ms,0 ms,0,0,0,0 ms
129,6,AOI-7,0 %,0,0,0 %,0,0 ms,0 ms,0,0,0,0 ms
130,7,AOI-8,0 %,0,0,0 %,0,0 ms,0 ms,0,0,0,0 ms
131,8,AOI-9,25 %,1,1,32.8 %,373,373 ms,1 ms,1,1,0,0 ms
132,9,AOI-10,75 %,3,3,67.2 %,763,763 ms,390 ms,1,1,0,0 ms
133,10,AOI-11,0 %,0,0,0 %,0,0 ms,0 ms,0,0,0,0 ms
134,11,AOI-12,0 %,0,0,0 %,0,0 ms,0 ms,0,0,0,0 ms
135,12,AOI-13,0 %,0,0,0 %,0,0 ms,0 ms,0,0,0,0 ms
136,13,AOI-14,0 %,0,0,0 %,0,0 ms,0 ms,0,0,0,0 ms
137,14,AOI-15,25 %,1,1,32.8 %,373,373 ms,1 ms,1,1,0,0 ms
138,15,AOI-16,25 %,1,1,12.9 %,146,146 ms,390 ms,1,1,0,0 ms
139,16,AOI-17,25 %,1,1,27.5 %,312,312 ms,575 ms,1,1,0,0 ms
140,17,AOI-18,25 %,1,1,26.8 %,305,305 ms,920 ms,1,1,0,0 ms
141,18,Outside ,0 %,0,0,0 %,0,0 ms,0 ms,0,0,0,0 ms
142,0,AOI-1,50 %,1,1,91.3 %,553,553 ms,9 ms,1,1,0,0 ms
143,1,AOI-2,50 %,1,1,91.3 %,553,553 ms,9 ms,1,1,0,0 ms
144,2,AOI-3,0 %,0,0,0 %,0,0 ms,0 ms,0,0,0,0 ms
145,3,AOI-4,0 %,0,0,0 %,0,0 ms,0 ms,0,0,0,0 ms
146,4,AOI-5,0 %,0,0,0 %,0,0 ms,0 ms,0,0,0,0 ms
147,5,AOI-6,0 %,0,0,0 %,0,0 ms,0 ms,0,0,0,0 ms
148,6,AOI-7,100 %,2,2,100 %,606,606 ms,9 ms,1,1,0,0 ms
149,7,AOI-8,0 %,0,0,0 %,0,0 ms,0 ms,0,0,0,0 ms
150,8,AOI-9,0 %,0,0,0 %,0,0 ms,0 ms,0,0,0,0 ms
151,9,AOI-10,0 %,0,0,0 %,0,0 ms,0 ms,0,0,0,0 ms
152,10,AOI-11,0 %,0,0,0 %,0,0 ms,0 ms,0,0,0,0 ms
153,11,AOI-12,50 %,1,1,8.7 %,53,53 ms,596 ms,1,1,0,0 ms
154,12,AOI-13,0 %,0,0,0 %,0,0 ms,0 ms,0,0,0,0 ms
155,13,AOI-14,0 %,0,0,0 %,0,0 ms,0 ms,0,0,0,0 ms
156,14,AOI-15,50 %,1,1,91.3 %,553,553 ms,9 ms,1,1,0,0 ms
157,15,AOI-16,0 %,0,0,0 %,0,0 ms,0 ms,0,0,0,0 ms
158,16,Outside ,0 %,0,0,0 %,0,0 ms,0 ms,0,0,0,0 ms
159,0,AOI-1,50 %,1,1,91.3 %,553,553 ms,9 ms,1,1,0,0 ms
160,1,AOI-2,50 %,1,1,91.3 %,553,553 ms,9 ms,1,1,0,0 ms
161,2,AOI-3,0 %,0,0,0 %,0,0 ms,0 ms,0,0,0,0 ms
162,3,AOI-4,0 %,0,0,0 %,0,0 ms,0 ms,0,0,0,0 ms
163,4,AOI-5,0 %,0,0,0 %,0,0 ms,0 ms,0,0,0,0 ms
164,5,AOI-6,0 %,0,0,0 %,0,0 ms,0 ms,0,0,0,0 ms
165,6,AOI-7,100 %,2,2,100 %,606,606 ms,9 ms,1,1,0,0 ms
166,7,AOI-8,0 %,0,0,0 %,0,0 ms,0 ms,0,0,0,0 ms
167,8,AOI-9,0 %,0,0,0 %,0,0 ms,0 ms,0,0,0,0 ms
168,9,AOI-10,0 %,0,0,0 %,0,0 ms,0 ms,0,0,0,0 ms
169,10,AOI-11,0 %,0,0,0 %,0,0 ms,0 ms,0,0,0,0 ms
170,11,AOI-12,50 %,1,1,8.7 %,53,53 ms,596 ms,1,1,0,0 ms
171,12,AOI-13,0 %,0,0,0 %,0,0 ms,0 ms,0,0,0,0 ms
172,13,AOI-14,0 %,0,0,0 %,0,0 ms,0 ms,0,0,0,0 ms
173,14,AOI-15,50 %,1,1,91.3 %,553,553 ms,9 ms,1,1,0,0 ms
174,15,AOI-16,0 %,0,0,0 %,0,0 ms,0 ms,0,0,0,0 ms
175,16,Outside ,0 %,0,0,0 %,0,0 ms,0 ms,0,0,0,0 ms
176,0,AOI-1,50 %,1,1,16.1 %,81,81 ms,4 ms,1,1,0,0 ms
177,1,AOI-2,50 %,1,1,83.9 %,422,422 ms,100 ms,1,1,0,0 ms
178,2,AOI-3,50 %,1,1,16.1 %,81,81 ms,4 ms,1,1,0,0 ms
179,3,AOI-4,50 %,1,1,83.9 %,422,422 ms,100 ms,1,1,0,0 ms
180,4,AOI-5,0 %,0,0,0 %,0,0 ms,0 ms,0,0,0,0 ms
181,5,AOI-6,0 %,0,0,0 %,0,0 ms,0 ms,0,0,0,0 ms
182,6,AOI-7,0 %,0,0,0 %,0,0 ms,0 ms,0,0,0,0 ms
183,7,AOI-8,0 %,0,0,0 %,0,0 ms,0 ms,0,0,0,0 ms
184,8,AOI-9,0 %,0,0,0 %,0,0 ms,0 ms,0,0,0,0 ms
185,9,AOI-10,100 %,2,2,100 %,503,503 ms,4 ms,1,1,0,0 ms
186,10,AOI-11,0 %,0,0,0 %,0,0 ms,0 ms,0,0,0,0 ms
187,11,AOI-12,0 %,0,0,0 %,0,0 ms,0 ms,0,0,0,0 ms
188,12,AOI-13,0 %,0,0,0 %,0,0 ms,0 ms,0,0,0,0 ms
189,13,AOI-14,0 %,0,0,0 %,0,0 ms,0 ms,0,0,0,0 ms
190,14,AOI-15,0 %,0,0,0 %,0,0 ms,0 ms,0,0,0,0 ms
191,15,AOI-16,100 %,2,2,100 %,503,503 ms,4 ms,1,1,0,0 ms
192,16,AOI-17,0 %,0,0,0 %,0,0 ms,0 ms,0,0,0,0 ms
193,17,AOI-18,0 %,0,0,0 %,0,0 ms,0 ms,0,0,0,0 ms
194,18,Outside ,0 %,0,0,0 %,0,0 ms,0 ms,0,0,0,0 ms
195,0,AOI-1,66.7 %,2,2,62.9 %,268,268 ms,16 ms,1,1,0,0 ms
196,1,AOI-2,33.3 %,1,1,37.1 %,158,158 ms,300 ms,1,1,0,0 ms
197,2,AOI-3,66.7 %,2,2,62.9 %,268,268 ms,16 ms,1,1,0,0 ms
198,3,AOI-4,33.3 %,1,1,37.1 %,158,158 ms,300 ms,1,1,0,0 ms
199,4,AOI-5,0 %,0,0,0 %,0,0 ms,0 ms,0,0,0,0 ms
200,5,AOI-6,0 %,0,0,0 %,0,0 ms,0 ms,0,0,0,0 ms
201,6,AOI-7,0 %,0,0,0 %,0,0 ms,0 ms,0,0,0,0 ms
202,7,AOI-8,0 %,0,0,0 %,0,0 ms,0 ms,0,0,0,0 ms
203,8,AOI-9,0 %,0,0,0 %,0,0 ms,0 ms,0,0,0,0 ms
204,9,AOI-10,100 %,3,3,100 %,426,426 ms,16 ms,1,1,0,0 ms
205,10,AOI-11,0 %,0,0,0 %,0,0 ms,0 ms,0,0,0,0 ms
206,11,AOI-12,0 %,0,0,0 %,0,0 ms,0 ms,0,0,0,0 ms
207,12,AOI-13,0 %,0,0,0 %,0,0 ms,0 ms,0,0,0,0 ms
208,13,AOI-14,100 %,3,3,100 %,426,426 ms,16 ms,1,1,0,0 ms
209,14,AOI-15,0 %,0,0,0 %,0,0 ms,0 ms,0,0,0,0 ms
210,15,AOI-16,0 %,0,0,0 %,0,0 ms,0 ms,0,0,0,0 ms
211,16,AOI-17,0 %,0,0,0 %,0,0 ms,0 ms,0,0,0,0 ms
212,17,AOI-18,0 %,0,0,0 %,0,0 ms,0 ms,0,0,0,0 ms
213,18,Outside ,0 %,0,0,0 %,0,0 ms,0 ms,0,0,0,0 ms
214,0,AOI-1,50 %,1,1,71.6 %,166,166 ms,84 ms,1,1,0,0 ms
215,1,AOI-2,50 %,1,1,28.4 %,66,66 ms,4 ms,1,1,0,0 ms
216,2,AOI-3,0 %,0,0,0 %,0,0 ms,0 ms,0,0,0,0 ms
217,3,AOI-4,0 %,0,0,0 %,0,0 ms,0 ms,0,0,0,0 ms
218,4,AOI-5,0 %,0,0,0 %,0,0 ms,0 ms,0,0,0,0 ms
219,5,AOI-6,100 %,2,2,100 %,232,232 ms,4 ms,1,1,0,0 ms
220,6,AOI-7,0 %,0,0,0 %,0,0 ms,0 ms,0,0,0,0 ms
221,7,AOI-8,0 %,0,0,0 %,0,0 ms,0 ms,0,0,0,0 ms
222,8,AOI-9,0 %,0,0,0 %,0,0 ms,0 ms,0,0,0,0 ms
223,9,AOI-10,0 %,0,0,0 %,0,0 ms,0 ms,0,0,0,0 ms
224,10,AOI-11,50 %,1,1,28.4 %,66,66 ms,4 ms,1,1,0,0 ms
225,11,AOI-12,50 %,1,1,71.6 %,166,166 ms,84 ms,1,1,0,0 ms
226,12,AOI-13,0 %,0,0,0 %,0,0 ms,0 ms,0,0,0,0 ms
227,13,AOI-14,0 %,0,0,0 %,0,0 ms,0 ms,0,0,0,0 ms
228,14,AOI-15,0 %,0,0,0 %,0,0 ms,0 ms,0,0,0,0 ms
229,15,AOI-16,0 %,0,0,0 %,0,0 ms,0 ms,0,0,0,0 ms
230,16,Outside ,0 %,0,0,0 %,0,0 ms,0 ms,0,0,0,0 ms
231,0,AOI-1,0 %,0,0,0 %,0,0 ms,0 ms,0,0,0,0 ms
232,1,AOI-2,0 %,0,0,0 %,0,0 ms,0 ms,0,0,0,0 ms
233,2,AOI-3,0 %,0,0,0 %,0,0 ms,0 ms,0,0,0,0 ms
234,3,AOI-4,0 %,0,0,0 %,0,0 ms,0 ms,0,0,0,0 ms
235,4,AOI-5,100 %,3,3,100 %,606,606 ms,1 ms,1,1,0,0 ms
236,5,AOI-6,0 %,0,0,0 %,0,0 ms,0 ms,0,0,0,0 ms
237,6,AOI-7,0 %,0,0,0 %,0,0 ms,0 ms,0,0,0,0 ms
238,7,AOI-8,0 %,0,0,0 %,0,0 ms,0 ms,0,0,0,0 ms
239,8,AOI-9,0 %,0,0,0 %,0,0 ms,0 ms,0,0,0,0 ms
240,9,AOI-10,100 %,3,3,100 %,606,606 ms,1 ms,1,1,0,0 ms
241,10,AOI-11,0 %,0,0,0 %,0,0 ms,0 ms,0,0,0,0 ms
242,11,AOI-12,0 %,0,0,0 %,0,0 ms,0 ms,0,0,0,0 ms
243,12,AOI-13,0 %,0,0,0 %,0,0 ms,0 ms,0,0,0,0 ms
244,13,AOI-14,0 %,0,0,0 %,0,0 ms,0 ms,0,0,0,0 ms
245,14,AOI-15,66.7 %,2,2,44.4 %,269,269 ms,1 ms,1,1,0,0 ms
246,15,AOI-16,33.3 %,1,1,55.6 %,337,337 ms,286 ms,1,1,0,0 ms
247,16,AOI-17,33.3 %,1,1,55.6 %,337,337 ms,286 ms,1,1,0,0 ms
248,17,Outside ,0 %,0,0,0 %,0,0 ms,0 ms,0,0,0,0 ms
249,0,AOI-1,0 %,0,0,0 %,0,0 ms,0 ms,0,0,0,0 ms
250,1,AOI-2,0 %,0,0,0 %,0,0 ms,0 ms,0,0,0,0 ms
251,2,AOI-3,0 %,0,0,0 %,0,0 ms,0 ms,0,0,0,0 ms
252,3,AOI-4,0 %,0,0,0 %,0,0 ms,0 ms,0,0,0,0 ms
253,4,AOI-5,100 %,2,2,100 %,285,285 ms,13 ms,1,1,0,0 ms
254,5,AOI-6,0 %,0,0,0 %,0,0 ms,0 ms,0,0,0,0 ms
255,6,AOI-7,0 %,0,0,0 %,0,0 ms,0 ms,0,0,0,0 ms
256,7,AOI-8,0 %,0,0,0 %,0,0 ms,0 ms,0,0,0,0 ms
257,8,AOI-9,0 %,0,0,0 %,0,0 ms,0 ms,0,0,0,0 ms
258,9,AOI-10,0 %,0,0,0 %,0,0 ms,0 ms,0,0,0,0 ms
259,10,AOI-11,100 %,2,2,100 %,285,285 ms,13 ms,1,1,0,0 ms
260,11,AOI-12,0 %,0,0,0 %,0,0 ms,0 ms,0,0,0,0 ms
261,12,AOI-13,0 %,0,0,0 %,0,0 ms,0 ms,0,0,0,0 ms
262,13,AOI-14,0 %,0,0,0 %,0,0 ms,0 ms,0,0,0,0 ms
263,14,AOI-15,100 %,2,2,100 %,285,285 ms,13 ms,1,1,0,0 ms
264,15,Outside ,0 %,0,0,0 %,0,0 ms,0 ms,0,0,0,0 ms
265,0,AOI-1,66.7 %,2,2,62.9 %,268,268 ms,16 ms,1,1,0,0 ms
266,1,AOI-2,33.3 %,1,1,37.1 %,158,158 ms,300 ms,1,1,0,0 ms
267,2,AOI-3,66.7 %,2,2,62.9 %,268,268 ms,16 ms,1,1,0,0 ms
268,3,AOI-4,33.3 %,1,1,37.1 %,158,158 ms,300 ms,1,1,0,0 ms
269,4,AOI-5,0 %,0,0,0 %,0,0 ms,0 ms,0,0,0,0 ms
270,5,AOI-6,0 %,0,0,0 %,0,0 ms,0 ms,0,0,0,0 ms
271,6,AOI-7,0 %,0,0,0 %,0,0 ms,0 ms,0,0,0,0 ms
272,7,AOI-8,0 %,0,0,0 %,0,0 ms,0 ms,0,0,0,0 ms
273,8,AOI-9,0 %,0,0,0 %,0,0 ms,0 ms,0,0,0,0 ms
274,9,AOI-10,100 %,3,3,100 %,426,426 ms,16 ms,1,1,0,0 ms
275,10,AOI-11,0 %,0,0,0 %,0,0 ms,0 ms,0,0,0,0 ms
276,11,AOI-12,0 %,0,0,0 %,0,0 ms,0 ms,0,0,0,0 ms
277,12,AOI-13,0 %,0,0,0 %,0,0 ms,0 ms,0,0,0,0 ms
278,13,AOI-14,100 %,3,3,100 %,426,426 ms,16 ms,1,1,0,0 ms
279,14,AOI-15,0 %,0,0,0 %,0,0 ms,0 ms,0,0,0,0 ms
280,15,AOI-16,0 %,0,0,0 %,0,0 ms,0 ms,0,0,0,0 ms
281,16,AOI-17,0 %,0,0,0 %,0,0 ms,0 ms,0,0,0,0 ms
282,17,AOI-18,0 %,0,0,0 %,0,0 ms,0 ms,0,0,0,0 ms
283,18,Outside ,0 %,0,0,0 %,0,0 ms,0 ms,0,0,0,0 ms
284,0,AOI-1,0 %,0,0,0 %,0,0 ms,0 ms,0,0,0,0 ms
285,1,AOI-2,0 %,0,0,0 %,0,0 ms,0 ms,0,0,0,0 ms
286,2,AOI-3,0 %,0,0,0 %,0,0 ms,0 ms,0,0,0,0 ms
287,3,AOI-4,0 %,0,0,0 %,0,0 ms,0 ms,0,0,0,0 ms
288,4,AOI-5,100 %,4,4,100 %,1136,"1,136 ms",1 ms,1,1,0,0 ms
289,5,AOI-6,0 %,0,0,0 %,0,0 ms,0 ms,0,0,0,0 ms
290,6,AOI-7,0 %,0,0,0 %,0,0 ms,0 ms,0,0,0,0 ms
291,7,AOI-8,0 %,0,0,0 %,0,0 ms,0 ms,0,0,0,0 ms
292,8,AOI-9,25 %,1,1,32.8 %,373,373 ms,1 ms,1,1,0,0 ms
293,9,AOI-10,75 %,3,3,67.2 %,763,763 ms,390 ms,1,1,0,0 ms
294,10,AOI-11,0 %,0,0,0 %,0,0 ms,0 ms,0,0,0,0 ms
295,11,AOI-12,0 %,0,0,0 %,0,0 ms,0 ms,0,0,0,0 ms
296,12,AOI-13,0 %,0,0,0 %,0,0 ms,0 ms,0,0,0,0 ms
297,13,AOI-14,0 %,0,0,0 %,0,0 ms,0 ms,0,0,0,0 ms
298,14,AOI-15,25 %,1,1,32.8 %,373,373 ms,1 ms,1,1,0,0 ms
299,15,AOI-16,25 %,1,1,12.9 %,146,146 ms,390 ms,1,1,0,0 ms
300,16,AOI-17,25 %,1,1,27.5 %,312,312 ms,575 ms,1,1,0,0 ms
301,17,AOI-18,25 %,1,1,26.8 %,305,305 ms,920 ms,1,1,0,0 ms
302,18,Outside ,0 %,0,0,0 %,0,0 ms,0 ms,0,0,0,0 ms
303,0,AOI-1,100 %,2,2,100 %,230,230 ms,13 ms,1,1,0,0 ms
304,1,AOI-2,100 %,2,2,100 %,230,230 ms,13 ms,1,1,0,0 ms
305,2,AOI-3,0 %,0,0,0 %,0,0 ms,0 ms,0,0,0,0 ms
306,3,AOI-4,0 %,0,0,0 %,0,0 ms,0 ms,0,0,0,0 ms
307,4,AOI-5,0 %,0,0,0 %,0,0 ms,0 ms,0,0,0,0 ms
308,5,AOI-6,0 %,0,0,0 %,0,0 ms,0 ms,0,0,0,0 ms
309,6,AOI-7,100 %,2,2,100 %,230,230 ms,13 ms,1,1,0,0 ms
310,7,AOI-8,0 %,0,0,0 %,0,0 ms,0 ms,0,0,0,0 ms
311,8,AOI-9,0 %,0,0,0 %,0,0 ms,0 ms,0,0,0,0 ms
312,9,AOI-10,0 %,0,0,0 %,0,0 ms,0 ms,0,0,0,0 ms
313,10,AOI-11,0 %,0,0,0 %,0,0 ms,0 ms,0,0,0,0 ms
314,11,AOI-12,0 %,0,0,0 %,0,0 ms,0 ms,0,0,0,0 ms
315,12,AOI-13,0 %,0,0,0 %,0,0 ms,0 ms,0,0,0,0 ms
316,13,AOI-14,100 %,2,2,100 %,230,230 ms,13 ms,1,1,0,0 ms
317,14,AOI-15,0 %,0,0,0 %,0,0 ms,0 ms,0,0,0,0 ms
318,15,AOI-16,0 %,0,0,0 %,0,0 ms,0 ms,0,0,0,0 ms
319,16,Outside ,0 %,0,0,0 %,0,0 ms,0 ms,0,0,0,0 ms
320,0,AOI-1,0 %,0,0,0 %,0,0 ms,0 ms,0,0,0,0 ms
321,1,AOI-2,0 %,0,0,0 %,0,0 ms,0 ms,0,0,0,0 ms
322,2,AOI-3,0 %,0,0,0 %,0,0 ms,0 ms,0,0,0,0 ms
323,3,AOI-4,0 %,0,0,0 %,0,0 ms,0 ms,0,0,0,0 ms
324,4,AOI-5,100 %,2,2,100 %,285,285 ms,13 ms,1,1,0,0 ms
325,5,AOI-6,0 %,0,0,0 %,0,0 ms,0 ms,0,0,0,0 ms
326,6,AOI-7,0 %,0,0,0 %,0,0 ms,0 ms,0,0,0,0 ms
327,7,AOI-8,0 %,0,0,0 %,0,0 ms,0 ms,0,0,0,0 ms
328,8,AOI-9,0 %,0,0,0 %,0,0 ms,0 ms,0,0,0,0 ms
329,9,AOI-10,0 %,0,0,0 %,0,0 ms,0 ms,0,0,0,0 ms
330,10,AOI-11,100 %,2,2,100 %,285,285 ms,13 ms,1,1,0,0 ms
331,11,AOI-12,0 %,0,0,0 %,0,0 ms,0 ms,0,0,0,0 ms
332,12,AOI-13,0 %,0,0,0 %,0,0 ms,0 ms,0,0,0,0 ms
333,13,AOI-14,0 %,0,0,0 %,0,0 ms,0 ms,0,0,0,0 ms
334,14,AOI-15,100 %,2,2,100 %,285,285 ms,13 ms,1,1,0,0 ms
335,15,Outside ,0 %,0,0,0 %,0,0 ms,0 ms,0,0,0,0 ms
336,0,AOI-1,100 %,2,2,100 %,302,302 ms,11 ms,1,1,0,0 ms
337,1,AOI-2,0 %,0,0,0 %,0,0 ms,0 ms,0,0,0,0 ms
338,2,AOI-3,0 %,0,0,0 %,0,0 ms,0 ms,0,0,0,0 ms
339,3,AOI-4,0 %,0,0,0 %,0,0 ms,0 ms,0,0,0,0 ms
340,4,AOI-5,0 %,0,0,0 %,0,0 ms,0 ms,0,0,0,0 ms
341,5,AOI-6,100 %,2,2,100 %,302,302 ms,11 ms,1,1,0,0 ms
342,6,AOI-7,0 %,0,0,0 %,0,0 ms,0 ms,0,0,0,0 ms
343,7,AOI-8,0 %,0,0,0 %,0,0 ms,0 ms,0,0,0,0 ms
344,8,AOI-9,0 %,0,0,0 %,0,0 ms,0 ms,0,0,0,0 ms
345,9,AOI-10,0 %,0,0,0 %,0,0 ms,0 ms,0,0,0,0 ms
346,10,AOI-11,0 %,0,0,0 %,0,0 ms,0 ms,0,0,0,0 ms
347,11,AOI-12,0 %,0,0,0 %,0,0 ms,0 ms,0,0,0,0 ms
348,12,AOI-13,0 %,0,0,0 %,0,0 ms,0 ms,0,0,0,0 ms
349,13,AOI-14,100 %,2,2,100 %,302,302 ms,11 ms,1,1,0,0 ms
350,14,AOI-15,0 %,0,0,0 %,0,0 ms,0 ms,0,0,0,0 ms
351,15,Outside ,0 %,0,0,0 %,0,0 ms,0 ms,0,0,0,0 ms
352,0,AOI-1,66.7 %,2,2,65.6 %,315,315 ms,224 ms,1,1,0,0 ms
353,1,AOI-2,33.3 %,1,1,34.4 %,165,165 ms,3 ms,1,1,0,0 ms
354,2,AOI-3,33.3 %,1,1,52.9 %,254,254 ms,301 ms,1,1,0,0 ms
355,3,AOI-4,33.3 %,1,1,34.4 %,165,165 ms,3 ms,1,1,0,0 ms
356,4,AOI-5,0 %,0,0,0 %,0,0 ms,0 ms,0,0,0,0 ms
357,5,AOI-6,0 %,0,0,0 %,0,0 ms,0 ms,0,0,0,0 ms
358,6,AOI-7,0 %,0,0,0 %,0,0 ms,0 ms,0,0,0,0 ms
359,7,AOI-8,0 %,0,0,0 %,0,0 ms,0 ms,0,0,0,0 ms
360,8,AOI-9,0 %,0,0,0 %,0,0 ms,0 ms,0,0,0,0 ms
361,9,AOI-10,0 %,0,0,0 %,0,0 ms,0 ms,0,0,0,0 ms
362,10,AOI-11,0 %,0,0,0 %,0,0 ms,0 ms,0,0,0,0 ms
363,11,AOI-12,100 %,3,3,100 %,480,480 ms,3 ms,1,1,0,0 ms
364,12,AOI-13,33.3 %,1,1,52.9 %,254,254 ms,301 ms,1,1,0,0 ms
365,13,AOI-14,0 %,0,0,0 %,0,0 ms,0 ms,0,0,0,0 ms
366,14,AOI-15,0 %,0,0,0 %,0,0 ms,0 ms,0,0,0,0 ms
367,15,AOI-16,33.3 %,1,1,12.7 %,61,61 ms,224 ms,1,1,0,0 ms
368,16,AOI-17,33.3 %,1,1,34.4 %,165,165 ms,3 ms,1,1,0,0 ms
369,17,AOI-18,0 %,0,0,0 %,0,0 ms,0 ms,0,0,0,0 ms
370,18,Outside ,0 %,0,0,0 %,0,0 ms,0 ms,0,0,0,0 ms
371,0,AOI-1,100 %,2,2,100 %,230,230 ms,13 ms,1,1,0,0 ms
372,1,AOI-2,100 %,2,2,100 %,230,230 ms,13 ms,1,1,0,0 ms
373,2,AOI-3,0 %,0,0,0 %,0,0 ms,0 ms,0,0,0,0 ms
374,3,AOI-4,0 %,0,0,0 %,0,0 ms,0 ms,0,0,0,0 ms
375,4,AOI-5,0 %,0,0,0 %,0,0 ms,0 ms,0,0,0,0 ms
376,5,AOI-6,0 %,0,0,0 %,0,0 ms,0 ms,0,0,0,0 ms
377,6,AOI-7,100 %,2,2,100 %,230,230 ms,13 ms,1,1,0,0 ms
378,7,AOI-8,0 %,0,0,0 %,0,0 ms,0 ms,0,0,0,0 ms
379,8,AOI-9,0 %,0,0,0 %,0,0 ms,0 ms,0,0,0,0 ms
380,9,AOI-10,0 %,0,0,0 %,0,0 ms,0 ms,0,0,0,0 ms
381,10,AOI-11,0 %,0,0,0 %,0,0 ms,0 ms,0,0,0,0 ms
382,11,AOI-12,0 %,0,0,0 %,0,0 ms,0 ms,0,0,0,0 ms
383,12,AOI-13,0 %,0,0,0 %,0,0 ms,0 ms,0,0,0,0 ms
384,13,AOI-14,100 %,2,2,100 %,230,230 ms,13 ms,1,1,0,0 ms
385,14,AOI-15,0 %,0,0,0 %,0,0 ms,0 ms,0,0,0,0 ms
386,15,AOI-16,0 %,0,0,0 %,0,0 ms,0 ms,0,0,0,0 ms
387,16,Outside ,0 %,0,0,0 %,0,0 ms,0 ms,0,0,0,0 ms
388,0,AOI-1,66.7 %,2,2,68.8 %,302,302 ms,170 ms,1,1,0,0 ms
389,1,AOI-2,33.3 %,1,1,31.2 %,137,137 ms,3 ms,1,1,0,0 ms
390,2,AOI-3,66.7 %,2,2,68.8 %,302,302 ms,170 ms,1,1,0,0 ms
391,3,AOI-4,33.3 %,1,1,31.2 %,137,137 ms,3 ms,1,1,0,0 ms
392,4,AOI-5,0 %,0,0,0 %,0,0 ms,0 ms,0,0,0,0 ms
393,5,AOI-6,0 %,0,0,0 %,0,0 ms,0 ms,0,0,0,0 ms
394,6,AOI-7,0 %,0,0,0 %,0,0 ms,0 ms,0,0,0,0 ms
395,7,AOI-8,0 %,0,0,0 %,0,0 ms,0 ms,0,0,0,0 ms
396,8,AOI-9,0 %,0,0,0 %,0,0 ms,0 ms,0,0,0,0 ms
397,9,AOI-10,100 %,3,3,100 %,439,439 ms,3 ms,1,1,0,0 ms
398,10,AOI-11,0 %,0,0,0 %,0,0 ms,0 ms,0,0,0,0 ms
399,11,AOI-12,0 %,0,0,0 %,0,0 ms,0 ms,0,0,0,0 ms
400,12,AOI-13,66.7 %,2,2,68.8 %,302,302 ms,170 ms,1,1,0,0 ms
401,13,AOI-14,0 %,0,0,0 %,0,0 ms,0 ms,0,0,0,0 ms
402,14,AOI-15,0 %,0,0,0 %,0,0 ms,0 ms,0,0,0,0 ms
403,15,AOI-16,0 %,0,0,0 %,0,0 ms,0 ms,0,0,0,0 ms
404,16,AOI-17,33.3 %,1,1,31.2 %,137,137 ms,3 ms,1,1,0,0 ms
405,17,AOI-18,0 %,0,0,0 %,0,0 ms,0 ms,0,0,0,0 ms
406,18,Outside ,0 %,0,0,0 %,0,0 ms,0 ms,0,0,0,0 ms
407,0,AOI-1,66.7 %,2,2,65.6 %,315,315 ms,224 ms,1,1,0,0 ms
408,1,AOI-2,33.3 %,1,1,34.4 %,165,165 ms,3 ms,1,1,0,0 ms
409,2,AOI-3,33.3 %,1,1,52.9 %,254,254 ms,301 ms,1,1,0,0 ms
410,3,AOI-4,33.3 %,1,1,34.4 %,165,165 ms,3 ms,1,1,0,0 ms
411,4,AOI-5,0 %,0,0,0 %,0,0 ms,0 ms,0,0,0,0 ms
412,5,AOI-6,0 %,0,0,0 %,0,0 ms,0 ms,0,0,0,0 ms
413,6,AOI-7,0 %,0,0,0 %,0,0 ms,0 ms,0,0,0,0 ms
414,7,AOI-8,0 %,0,0,0 %,0,0 ms,0 ms,0,0,0,0 ms
415,8,AOI-9,0 %,0,0,0 %,0,0 ms,0 ms,0,0,0,0 ms
416,9,AOI-10,0 %,0,0,0 %,0,0 ms,0 ms,0,0,0,0 ms
417,10,AOI-11,0 %,0,0,0 %,0,0 ms,0 ms,0,0,0,0 ms
418,11,AOI-12,100 %,3,3,100 %,480,480 ms,3 ms,1,1,0,0 ms
419,12,AOI-13,33.3 %,1,1,52.9 %,254,254 ms,301 ms,1,1,0,0 ms
420,13,AOI-14,0 %,0,0,0 %,0,0 ms,0 ms,0,0,0,0 ms
421,14,AOI-15,0 %,0,0,0 %,0,0 ms,0 ms,0,0,0,0 ms
422,15,AOI-16,33.3 %,1,1,12.7 %,61,61 ms,224 ms,1,1,0,0 ms
423,16,AOI-17,33.3 %,1,1,34.4 %,165,165 ms,3 ms,1,1,0,0 ms
424,17,AOI-18,0 %,0,0,0 %,0,0 ms,0 ms,0,0,0,0 ms
425,18,Outside ,0 %,0,0,0 %,0,0 ms,0 ms,0,0,0,0 ms
