AOI,Number of fixations,Duration of all fixations in ms,Number of visits
AOI-1,9,3287,5
AOI-10,8,1319,2
AOI-11,0,0,0
AOI-12,1,483,1
AOI-13,2,882,1
AOI-14,5,1555,4
AOI-15,5,1776,4
AOI-16,4,1611,4
AOI-17,2,424,2
AOI-18,2,355,2
AOI-19,1,284,1
AOI-2,4,441,3
AOI-20,1,107,1
AOI-21,1,212,1
AOI-22,1,107,1
AOI-23,1,212,1
AOI-3,2,783,2
AOI-4,1,344,1
AOI-5,19,5482,7
AOI-6,9,3285,3
AOI-7,2,377,2
AOI-8,0,0,0
AOI-9,9,1983,4
Outside ,1,505,1
