AOI;Percentage of all fixations;Number of fixations;∅ Number of fixations;Percentage of all fixations durations;Duration of all fixations in ms;∅ Duration of all fixations in ms;Time till the first fixation;Number of visits;Seen number;Clicks count;Time to first click in ms
AOI-1;0 %;0;0;0 %;0 ms;0 ms;0 ms;0;0;0;0 ms
AOI-2;0 %;0;0;0 %;0 ms;0 ms;0 ms;0;0;0;0 ms
AOI-3;0 %;0;0;0 %;0 ms;0 ms;0 ms;0;0;0;0 ms
AOI-4;0 %;0;0;0 %;0 ms;0 ms;0 ms;0;0;0;0 ms
AOI-5;100 %;4;4;100 %;1136 ms;1,136 ms;1 ms;1;1;0;0 ms
AOI-6;0 %;0;0;0 %;0 ms;0 ms;0 ms;0;0;0;0 ms
AOI-7;0 %;0;0;0 %;0 ms;0 ms;0 ms;0;0;0;0 ms
AOI-8;0 %;0;0;0 %;0 ms;0 ms;0 ms;0;0;0;0 ms
AOI-9;25 %;1;1;32.8 %;373 ms;373 ms;1 ms;1;1;0;0 ms
AOI-10;75 %;3;3;67.2 %;763 ms;763 ms;390 ms;1;1;0;0 ms
AOI-11;0 %;0;0;0 %;0 ms;0 ms;0 ms;0;0;0;0 ms
AOI-12;0 %;0;0;0 %;0 ms;0 ms;0 ms;0;0;0;0 ms
AOI-13;0 %;0;0;0 %;0 ms;0 ms;0 ms;0;0;0;0 ms
AOI-14;0 %;0;0;0 %;0 ms;0 ms;0 ms;0;0;0;0 ms
AOI-15;25 %;1;1;32.8 %;373 ms;373 ms;1 ms;1;1;0;0 ms
AOI-16;25 %;1;1;12.9 %;146 ms;146 ms;390 ms;1;1;0;0 ms
AOI-17;25 %;1;1;27.5 %;312 ms;312 ms;575 ms;1;1;0;0 ms
AOI-18;25 %;1;1;26.8 %;305 ms;305 ms;920 ms;1;1;0;0 ms
Outside ;0 %;0;0;0 %;0 ms;0 ms;0 ms;0;0;0;0 ms
