AOI;Percentage of all fixations;Number of fixations;∅ Number of fixations;Percentage of all fixations durations;Duration of all fixations in ms;∅ Duration of all fixations in ms;Time till the first fixation;Number of visits;Seen number;Clicks count;Time to first click in ms
AOI-1;0 %;0;0;0 %;0 ms;0 ms;0 ms;0;0;0;0 ms
AOI-2;0 %;0;0;0 %;0 ms;0 ms;0 ms;0;0;0;0 ms
AOI-3;0 %;0;0;0 %;0 ms;0 ms;0 ms;0;0;0;0 ms
AOI-4;0 %;0;0;0 %;0 ms;0 ms;0 ms;0;0;0;0 ms
AOI-5;100 %;7;7;100 %;1462 ms;1,462 ms;4 ms;1;1;0;0 ms
AOI-6;0 %;0;0;0 %;0 ms;0 ms;0 ms;0;0;0;0 ms
AOI-7;0 %;0;0;0 %;0 ms;0 ms;0 ms;0;0;0;0 ms
AOI-8;0 %;0;0;0 %;0 ms;0 ms;0 ms;0;0;0;0 ms
AOI-9;14.3 %;1;1;14.2 %;207 ms;207 ms;1372 ms;1;1;0;0 ms
AOI-10;85.7 %;6;6;85.8 %;1255 ms;1,255 ms;4 ms;1;1;0;0 ms
AOI-11;0 %;0;0;0 %;0 ms;0 ms;0 ms;0;0;0;0 ms
AOI-12;0 %;0;0;0 %;0 ms;0 ms;0 ms;0;0;0;0 ms
AOI-13;0 %;0;0;0 %;0 ms;0 ms;0 ms;0;0;0;0 ms
AOI-14;0 %;0;0;0 %;0 ms;0 ms;0 ms;0;0;0;0 ms
AOI-15;28.6 %;2;2;33.6 %;491 ms;491 ms;297 ms;1;1;0;0 ms
AOI-16;14.3 %;1;1;23.9 %;349 ms;349 ms;454 ms;1;1;0;0 ms
AOI-17;14.3 %;1;1;14.2 %;207 ms;207 ms;1372 ms;1;1;0;0 ms
AOI-18;14.3 %;1;1;11 %;161 ms;161 ms;1188 ms;1;1;0;0 ms
AOI-19;14.3 %;1;1;19.4 %;284 ms;284 ms;4 ms;1;1;0;0 ms
AOI-20;14.3 %;1;1;7.3 %;107 ms;107 ms;1049 ms;1;1;0;0 ms
AOI-21;14.3 %;1;1;14.5 %;212 ms;212 ms;819 ms;1;1;0;0 ms
AOI-22;14.3 %;1;1;7.3 %;107 ms;107 ms;1049 ms;1;1;0;0 ms
AOI-23;14.3 %;1;1;14.5 %;212 ms;212 ms;819 ms;1;1;0;0 ms
Outside ;0 %;0;0;0 %;0 ms;0 ms;0 ms;0;0;0;0 ms
