,AOI,Percentage of all fixations,Number of fixations,∅ Number of fixations,Percentage of all fixations durations,Duration of all fixations in ms,∅ Duration of all fixations in ms,Time till the first fixation,Number of visits,Seen number,Clicks count,Time to first click in ms
0,AOI-1,25 %,1,1,24.7 %,134 ms,134 ms,476 ms,1,1,0,0 ms
1,AOI-2,50 %,2,2,11.8 %,64 ms,64 ms,6 ms,1,1,0,0 ms
2,AOI-3,25 %,1,1,63.5 %,344 ms,344 ms,110 ms,1,1,0,0 ms
3,AOI-4,25 %,1,1,63.5 %,344 ms,344 ms,110 ms,1,1,0,0 ms
4,AOI-5,0 %,0,0,0 %,0 ms,0 ms,0 ms,0,0,0,0 ms
5,AOI-6,0 %,0,0,0 %,0 ms,0 ms,0 ms,0,0,0,0 ms
6,AOI-7,0 %,0,0,0 %,0 ms,0 ms,0 ms,0,0,0,0 ms
7,AOI-8,0 %,0,0,0 %,0 ms,0 ms,0 ms,0,0,0,0 ms
8,AOI-9,100 %,4,4,100 %,542 ms,542 ms,6 ms,1,1,0,0 ms
9,AOI-10,50 %,2,2,11.8 %,64 ms,64 ms,6 ms,1,1,0,0 ms
10,AOI-11,0 %,0,0,0 %,0 ms,0 ms,0 ms,0,0,0,0 ms
11,AOI-12,0 %,0,0,0 %,0 ms,0 ms,0 ms,0,0,0,0 ms
12,AOI-13,0 %,0,0,0 %,0 ms,0 ms,0 ms,0,0,0,0 ms
13,AOI-14,50 %,2,2,88.2 %,478 ms,478 ms,110 ms,1,1,0,0 ms
14,AOI-15,0 %,0,0,0 %,0 ms,0 ms,0 ms,0,0,0,0 ms
15,AOI-16,0 %,0,0,0 %,0 ms,0 ms,0 ms,0,0,0,0 ms
16,AOI-17,0 %,0,0,0 %,0 ms,0 ms,0 ms,0,0,0,0 ms
17,AOI-18,0 %,0,0,0 %,0 ms,0 ms,0 ms,0,0,0,0 ms
18,Outside ,0 %,0,0,0 %,0 ms,0 ms,0 ms,0,0,0,0 ms
0,AOI-1,57.1 %,4,4,69.6 %,1650 ms,"1,650 ms",880 ms,1,1,3,515 ms
1,AOI-2,0 %,0,0,0 %,0 ms,0 ms,0 ms,0,0,0,0 ms
2,AOI-3,0 %,0,0,0 %,0 ms,0 ms,0 ms,0,0,1,515 ms
3,AOI-4,0 %,0,0,0 %,0 ms,0 ms,0 ms,0,0,0,0 ms
4,AOI-5,85.7 %,6,6,78.7 %,1864 ms,"1,864 ms",8 ms,2,1,3,515 ms
5,AOI-6,71.4 %,5,5,74.7 %,1769 ms,"1,769 ms",742 ms,1,1,3,515 ms
6,AOI-7,0 %,0,0,0 %,0 ms,0 ms,0 ms,0,0,0,0 ms
7,AOI-8,0 %,0,0,0 %,0 ms,0 ms,0 ms,0,0,0,0 ms
8,AOI-9,0 %,0,0,0 %,0 ms,0 ms,0 ms,0,0,0,0 ms
9,AOI-10,0 %,0,0,0 %,0 ms,0 ms,0 ms,0,0,0,0 ms
10,AOI-11,0 %,0,0,0 %,0 ms,0 ms,0 ms,0,0,0,0 ms
11,AOI-12,0 %,0,0,0 %,0 ms,0 ms,0 ms,0,0,0,0 ms
12,AOI-13,0 %,0,0,0 %,0 ms,0 ms,0 ms,0,0,0,0 ms
13,AOI-14,14.3 %,1,1,4 %,95 ms,95 ms,8 ms,1,1,0,0 ms
14,Outside ,14.3 %,1,1,21.3 %,505 ms,505 ms,121 ms,1,1,0,0 ms
0,AOI-1,0 %,0,0,0 %,0 ms,0 ms,0 ms,0,0,0,0 ms
1,AOI-2,0 %,0,0,0 %,0 ms,0 ms,0 ms,0,0,0,0 ms
2,AOI-3,0 %,0,0,0 %,0 ms,0 ms,0 ms,0,0,0,0 ms
3,AOI-4,0 %,0,0,0 %,0 ms,0 ms,0 ms,0,0,0,0 ms
4,AOI-5,100 %,2,2,100 %,411 ms,411 ms,14 ms,1,1,0,0 ms
5,AOI-6,0 %,0,0,0 %,0 ms,0 ms,0 ms,0,0,0,0 ms
6,AOI-7,0 %,0,0,0 %,0 ms,0 ms,0 ms,0,0,0,0 ms
7,AOI-8,0 %,0,0,0 %,0 ms,0 ms,0 ms,0,0,0,0 ms
8,AOI-9,100 %,2,2,100 %,411 ms,411 ms,14 ms,1,1,0,0 ms
9,AOI-10,0 %,0,0,0 %,0 ms,0 ms,0 ms,0,0,0,0 ms
10,AOI-11,0 %,0,0,0 %,0 ms,0 ms,0 ms,0,0,0,0 ms
11,AOI-12,0 %,0,0,0 %,0 ms,0 ms,0 ms,0,0,0,0 ms
12,AOI-13,0 %,0,0,0 %,0 ms,0 ms,0 ms,0,0,0,0 ms
13,AOI-14,0 %,0,0,0 %,0 ms,0 ms,0 ms,0,0,0,0 ms
14,AOI-15,50 %,1,1,52.8 %,217 ms,217 ms,224 ms,1,1,0,0 ms
15,AOI-16,50 %,1,1,47.2 %,194 ms,194 ms,14 ms,1,1,0,0 ms
16,AOI-17,50 %,1,1,52.8 %,217 ms,217 ms,224 ms,1,1,0,0 ms
17,AOI-18,50 %,1,1,47.2 %,194 ms,194 ms,14 ms,1,1,0,0 ms
18,Outside ,0 %,0,0,0 %,0 ms,0 ms,0 ms,0,0,0,0 ms
0,AOI-1,66.7 %,2,2,81.9 %,882 ms,882 ms,8 ms,1,1,2,376 ms
1,AOI-2,33.3 %,1,1,18.1 %,195 ms,195 ms,981 ms,1,1,0,0 ms
2,AOI-3,0 %,0,0,0 %,0 ms,0 ms,0 ms,0,0,0,0 ms
3,AOI-4,0 %,0,0,0 %,0 ms,0 ms,0 ms,0,0,0,0 ms
4,AOI-5,0 %,0,0,0 %,0 ms,0 ms,0 ms,0,0,0,0 ms
5,AOI-6,100 %,3,3,100 %,1077 ms,"1,077 ms",8 ms,1,1,2,376 ms
6,AOI-7,33.3 %,1,1,18.1 %,195 ms,195 ms,981 ms,1,1,0,0 ms
7,AOI-8,0 %,0,0,0 %,0 ms,0 ms,0 ms,0,0,0,0 ms
8,AOI-9,0 %,0,0,0 %,0 ms,0 ms,0 ms,0,0,0,0 ms
9,AOI-10,0 %,0,0,0 %,0 ms,0 ms,0 ms,0,0,2,376 ms
10,AOI-11,0 %,0,0,0 %,0 ms,0 ms,0 ms,0,0,0,0 ms
11,AOI-12,0 %,0,0,0 %,0 ms,0 ms,0 ms,0,0,0,0 ms
12,AOI-13,66.7 %,2,2,81.9 %,882 ms,882 ms,8 ms,1,1,0,0 ms
13,AOI-14,33.3 %,1,1,74.3 %,800 ms,800 ms,8 ms,1,1,0,0 ms
14,AOI-15,0 %,0,0,0 %,0 ms,0 ms,0 ms,0,0,0,0 ms
15,Outside ,0 %,0,0,0 %,0 ms,0 ms,0 ms,0,0,0,0 ms
0,AOI-1,100 %,1,1,100 %,439 ms,439 ms,6 ms,1,1,0,0 ms
1,AOI-2,0 %,0,0,0 %,0 ms,0 ms,0 ms,0,0,0,0 ms
2,AOI-3,100 %,1,1,100 %,439 ms,439 ms,6 ms,1,1,0,0 ms
3,AOI-4,0 %,0,0,0 %,0 ms,0 ms,0 ms,0,0,0,0 ms
4,AOI-5,100 %,1,1,100 %,439 ms,439 ms,6 ms,1,1,0,0 ms
5,AOI-6,100 %,1,1,100 %,439 ms,439 ms,6 ms,1,1,0,0 ms
6,AOI-7,0 %,0,0,0 %,0 ms,0 ms,0 ms,0,0,0,0 ms
7,AOI-8,0 %,0,0,0 %,0 ms,0 ms,0 ms,0,0,0,0 ms
8,AOI-9,0 %,0,0,0 %,0 ms,0 ms,0 ms,0,0,0,0 ms
9,AOI-10,0 %,0,0,0 %,0 ms,0 ms,0 ms,0,0,0,0 ms
10,AOI-11,0 %,0,0,0 %,0 ms,0 ms,0 ms,0,0,0,0 ms
11,AOI-12,0 %,0,0,0 %,0 ms,0 ms,0 ms,0,0,0,0 ms
12,AOI-13,0 %,0,0,0 %,0 ms,0 ms,0 ms,0,0,0,0 ms
13,AOI-14,0 %,0,0,0 %,0 ms,0 ms,0 ms,0,0,0,0 ms
14,Outside ,0 %,0,0,0 %,0 ms,0 ms,0 ms,0,0,0,0 ms
0,AOI-1,0 %,0,0,0 %,0 ms,0 ms,0 ms,0,0,0,0 ms
1,AOI-2,0 %,0,0,0 %,0 ms,0 ms,0 ms,0,0,0,0 ms
2,AOI-3,0 %,0,0,0 %,0 ms,0 ms,0 ms,0,0,0,0 ms
3,AOI-4,0 %,0,0,0 %,0 ms,0 ms,0 ms,0,0,0,0 ms
4,AOI-5,100 %,7,7,100 %,1462 ms,"1,462 ms",4 ms,1,1,0,0 ms
5,AOI-6,0 %,0,0,0 %,0 ms,0 ms,0 ms,0,0,0,0 ms
6,AOI-7,0 %,0,0,0 %,0 ms,0 ms,0 ms,0,0,0,0 ms
7,AOI-8,0 %,0,0,0 %,0 ms,0 ms,0 ms,0,0,0,0 ms
8,AOI-9,14.3 %,1,1,14.2 %,207 ms,207 ms,1372 ms,1,1,0,0 ms
9,AOI-10,85.7 %,6,6,85.8 %,1255 ms,"1,255 ms",4 ms,1,1,0,0 ms
10,AOI-11,0 %,0,0,0 %,0 ms,0 ms,0 ms,0,0,0,0 ms
11,AOI-12,0 %,0,0,0 %,0 ms,0 ms,0 ms,0,0,0,0 ms
12,AOI-13,0 %,0,0,0 %,0 ms,0 ms,0 ms,0,0,0,0 ms
13,AOI-14,0 %,0,0,0 %,0 ms,0 ms,0 ms,0,0,0,0 ms
14,AOI-15,28.6 %,2,2,33.6 %,491 ms,491 ms,297 ms,1,1,0,0 ms
15,AOI-16,14.3 %,1,1,23.9 %,349 ms,349 ms,454 ms,1,1,0,0 ms
16,AOI-17,14.3 %,1,1,14.2 %,207 ms,207 ms,1372 ms,1,1,0,0 ms
17,AOI-18,14.3 %,1,1,11 %,161 ms,161 ms,1188 ms,1,1,0,0 ms
18,AOI-19,14.3 %,1,1,19.4 %,284 ms,284 ms,4 ms,1,1,0,0 ms
19,AOI-20,14.3 %,1,1,7.3 %,107 ms,107 ms,1049 ms,1,1,0,0 ms
20,AOI-21,14.3 %,1,1,14.5 %,212 ms,212 ms,819 ms,1,1,0,0 ms
21,AOI-22,14.3 %,1,1,7.3 %,107 ms,107 ms,1049 ms,1,1,0,0 ms
22,AOI-23,14.3 %,1,1,14.5 %,212 ms,212 ms,819 ms,1,1,0,0 ms
23,Outside ,0 %,0,0,0 %,0 ms,0 ms,0 ms,0,0,0,0 ms
0,AOI-1,100 %,1,1,100 %,182 ms,182 ms,2 ms,1,1,0,0 ms
1,AOI-2,100 %,1,1,100 %,182 ms,182 ms,2 ms,1,1,0,0 ms
2,AOI-3,0 %,0,0,0 %,0 ms,0 ms,0 ms,0,0,0,0 ms
3,AOI-4,0 %,0,0,0 %,0 ms,0 ms,0 ms,0,0,0,0 ms
4,AOI-5,0 %,0,0,0 %,0 ms,0 ms,0 ms,0,0,0,0 ms
5,AOI-6,0 %,0,0,0 %,0 ms,0 ms,0 ms,0,0,0,0 ms
6,AOI-7,100 %,1,1,100 %,182 ms,182 ms,2 ms,1,1,0,0 ms
7,AOI-8,0 %,0,0,0 %,0 ms,0 ms,0 ms,0,0,0,0 ms
8,AOI-9,0 %,0,0,0 %,0 ms,0 ms,0 ms,0,0,0,0 ms
9,AOI-10,0 %,0,0,0 %,0 ms,0 ms,0 ms,0,0,0,0 ms
10,AOI-11,0 %,0,0,0 %,0 ms,0 ms,0 ms,0,0,0,0 ms
11,AOI-12,0 %,0,0,0 %,0 ms,0 ms,0 ms,0,0,0,0 ms
12,AOI-13,0 %,0,0,0 %,0 ms,0 ms,0 ms,0,0,0,0 ms
13,AOI-14,100 %,1,1,100 %,182 ms,182 ms,2 ms,1,1,0,0 ms
14,AOI-15,0 %,0,0,0 %,0 ms,0 ms,0 ms,0,0,0,0 ms
15,AOI-16,0 %,0,0,0 %,0 ms,0 ms,0 ms,0,0,0,0 ms
16,Outside ,0 %,0,0,0 %,0 ms,0 ms,0 ms,0,0,0,0 ms
0,AOI-1,0 %,0,0,0 %,0 ms,0 ms,0 ms,0,0,0,0 ms
1,AOI-2,0 %,0,0,0 %,0 ms,0 ms,0 ms,0,0,0,0 ms
2,AOI-3,0 %,0,0,0 %,0 ms,0 ms,0 ms,0,0,0,0 ms
3,AOI-4,0 %,0,0,0 %,0 ms,0 ms,0 ms,0,0,0,0 ms
4,AOI-5,100 %,2,2,100 %,823 ms,823 ms,15 ms,1,1,0,0 ms
5,AOI-6,0 %,0,0,0 %,0 ms,0 ms,0 ms,0,0,0,0 ms
6,AOI-7,0 %,0,0,0 %,0 ms,0 ms,0 ms,0,0,0,0 ms
7,AOI-8,0 %,0,0,0 %,0 ms,0 ms,0 ms,0,0,0,0 ms
8,AOI-9,100 %,2,2,100 %,823 ms,823 ms,15 ms,1,1,0,0 ms
9,AOI-10,0 %,0,0,0 %,0 ms,0 ms,0 ms,0,0,0,0 ms
10,AOI-11,0 %,0,0,0 %,0 ms,0 ms,0 ms,0,0,0,0 ms
11,AOI-12,0 %,0,0,0 %,0 ms,0 ms,0 ms,0,0,0,0 ms
12,AOI-13,0 %,0,0,0 %,0 ms,0 ms,0 ms,0,0,0,0 ms
13,AOI-14,0 %,0,0,0 %,0 ms,0 ms,0 ms,0,0,0,0 ms
14,AOI-15,50 %,1,1,71.1 %,585 ms,585 ms,15 ms,1,1,0,0 ms
15,AOI-16,50 %,1,1,71.1 %,585 ms,585 ms,15 ms,1,1,0,0 ms
16,Outside ,0 %,0,0,0 %,0 ms,0 ms,0 ms,0,0,0,0 ms
0,AOI-1,0 %,0,0,0 %,0 ms,0 ms,0 ms,0,0,0,0 ms
1,AOI-2,0 %,0,0,0 %,0 ms,0 ms,0 ms,0,0,0,0 ms
2,AOI-3,0 %,0,0,0 %,0 ms,0 ms,0 ms,0,0,0,0 ms
3,AOI-4,0 %,0,0,0 %,0 ms,0 ms,0 ms,0,0,0,0 ms
4,AOI-5,100 %,1,1,100 %,483 ms,483 ms,12 ms,1,1,0,0 ms
5,AOI-6,0 %,0,0,0 %,0 ms,0 ms,0 ms,0,0,0,0 ms
6,AOI-7,0 %,0,0,0 %,0 ms,0 ms,0 ms,0,0,0,0 ms
7,AOI-8,0 %,0,0,0 %,0 ms,0 ms,0 ms,0,0,0,0 ms
8,AOI-9,0 %,0,0,0 %,0 ms,0 ms,0 ms,0,0,0,0 ms
9,AOI-10,0 %,0,0,0 %,0 ms,0 ms,0 ms,0,0,0,0 ms
10,AOI-11,0 %,0,0,0 %,0 ms,0 ms,0 ms,0,0,0,0 ms
11,AOI-12,100 %,1,1,100 %,483 ms,483 ms,12 ms,1,1,0,0 ms
12,AOI-13,0 %,0,0,0 %,0 ms,0 ms,0 ms,0,0,0,0 ms
13,AOI-14,0 %,0,0,0 %,0 ms,0 ms,0 ms,0,0,0,0 ms
14,AOI-15,100 %,1,1,100 %,483 ms,483 ms,12 ms,1,1,0,0 ms
15,AOI-16,100 %,1,1,100 %,483 ms,483 ms,12 ms,1,1,0,0 ms
16,Outside ,0 %,0,0,0 %,0 ms,0 ms,0 ms,0,0,0,0 ms
