,AOI,Percentage of all fixations,Number of fixations,∅ Number of fixations,Percentage of all fixations durations,Duration of all fixations in ms,∅ Duration of all fixations in ms,Time till the first fixation,Number of visits,Seen number,Clicks count,Time to first click in ms
0,AOI-1,50 %,1,1,91.3 %,553 ms,553 ms,9 ms,1,1,0,0 ms
1,AOI-2,50 %,1,1,91.3 %,553 ms,553 ms,9 ms,1,1,0,0 ms
2,AOI-3,0 %,0,0,0 %,0 ms,0 ms,0 ms,0,0,0,0 ms
3,AOI-4,0 %,0,0,0 %,0 ms,0 ms,0 ms,0,0,0,0 ms
4,AOI-5,0 %,0,0,0 %,0 ms,0 ms,0 ms,0,0,0,0 ms
5,AOI-6,0 %,0,0,0 %,0 ms,0 ms,0 ms,0,0,0,0 ms
6,AOI-7,100 %,2,2,100 %,606 ms,606 ms,9 ms,1,1,0,0 ms
7,AOI-8,0 %,0,0,0 %,0 ms,0 ms,0 ms,0,0,0,0 ms
8,AOI-9,0 %,0,0,0 %,0 ms,0 ms,0 ms,0,0,0,0 ms
9,AOI-10,0 %,0,0,0 %,0 ms,0 ms,0 ms,0,0,0,0 ms
10,AOI-11,0 %,0,0,0 %,0 ms,0 ms,0 ms,0,0,0,0 ms
11,AOI-12,50 %,1,1,8.7 %,53 ms,53 ms,596 ms,1,1,0,0 ms
12,AOI-13,0 %,0,0,0 %,0 ms,0 ms,0 ms,0,0,0,0 ms
13,AOI-14,0 %,0,0,0 %,0 ms,0 ms,0 ms,0,0,0,0 ms
14,AOI-15,50 %,1,1,91.3 %,553 ms,553 ms,9 ms,1,1,0,0 ms
15,AOI-16,0 %,0,0,0 %,0 ms,0 ms,0 ms,0,0,0,0 ms
16,Outside ,0 %,0,0,0 %,0 ms,0 ms,0 ms,0,0,0,0 ms
0,AOI-1,66.7 %,2,2,65.6 %,315 ms,315 ms,224 ms,1,1,0,0 ms
1,AOI-2,33.3 %,1,1,34.4 %,165 ms,165 ms,3 ms,1,1,0,0 ms
2,AOI-3,33.3 %,1,1,52.9 %,254 ms,254 ms,301 ms,1,1,0,0 ms
3,AOI-4,33.3 %,1,1,34.4 %,165 ms,165 ms,3 ms,1,1,0,0 ms
4,AOI-5,0 %,0,0,0 %,0 ms,0 ms,0 ms,0,0,0,0 ms
5,AOI-6,0 %,0,0,0 %,0 ms,0 ms,0 ms,0,0,0,0 ms
6,AOI-7,0 %,0,0,0 %,0 ms,0 ms,0 ms,0,0,0,0 ms
7,AOI-8,0 %,0,0,0 %,0 ms,0 ms,0 ms,0,0,0,0 ms
8,AOI-9,0 %,0,0,0 %,0 ms,0 ms,0 ms,0,0,0,0 ms
9,AOI-10,0 %,0,0,0 %,0 ms,0 ms,0 ms,0,0,0,0 ms
10,AOI-11,0 %,0,0,0 %,0 ms,0 ms,0 ms,0,0,0,0 ms
11,AOI-12,100 %,3,3,100 %,480 ms,480 ms,3 ms,1,1,0,0 ms
12,AOI-13,33.3 %,1,1,52.9 %,254 ms,254 ms,301 ms,1,1,0,0 ms
13,AOI-14,0 %,0,0,0 %,0 ms,0 ms,0 ms,0,0,0,0 ms
14,AOI-15,0 %,0,0,0 %,0 ms,0 ms,0 ms,0,0,0,0 ms
15,AOI-16,33.3 %,1,1,12.7 %,61 ms,61 ms,224 ms,1,1,0,0 ms
16,AOI-17,33.3 %,1,1,34.4 %,165 ms,165 ms,3 ms,1,1,0,0 ms
17,AOI-18,0 %,0,0,0 %,0 ms,0 ms,0 ms,0,0,0,0 ms
18,Outside ,0 %,0,0,0 %,0 ms,0 ms,0 ms,0,0,0,0 ms
0,AOI-1,0 %,0,0,0 %,0 ms,0 ms,0 ms,0,0,0,0 ms
1,AOI-2,0 %,0,0,0 %,0 ms,0 ms,0 ms,0,0,0,0 ms
2,AOI-3,0 %,0,0,0 %,0 ms,0 ms,0 ms,0,0,0,0 ms
3,AOI-4,0 %,0,0,0 %,0 ms,0 ms,0 ms,0,0,0,0 ms
4,AOI-5,100 %,4,4,100 %,1136 ms,"1,136 ms",1 ms,1,1,0,0 ms
5,AOI-6,0 %,0,0,0 %,0 ms,0 ms,0 ms,0,0,0,0 ms
6,AOI-7,0 %,0,0,0 %,0 ms,0 ms,0 ms,0,0,0,0 ms
7,AOI-8,0 %,0,0,0 %,0 ms,0 ms,0 ms,0,0,0,0 ms
8,AOI-9,25 %,1,1,32.8 %,373 ms,373 ms,1 ms,1,1,0,0 ms
9,AOI-10,75 %,3,3,67.2 %,763 ms,763 ms,390 ms,1,1,0,0 ms
10,AOI-11,0 %,0,0,0 %,0 ms,0 ms,0 ms,0,0,0,0 ms
11,AOI-12,0 %,0,0,0 %,0 ms,0 ms,0 ms,0,0,0,0 ms
12,AOI-13,0 %,0,0,0 %,0 ms,0 ms,0 ms,0,0,0,0 ms
13,AOI-14,0 %,0,0,0 %,0 ms,0 ms,0 ms,0,0,0,0 ms
14,AOI-15,25 %,1,1,32.8 %,373 ms,373 ms,1 ms,1,1,0,0 ms
15,AOI-16,25 %,1,1,12.9 %,146 ms,146 ms,390 ms,1,1,0,0 ms
16,AOI-17,25 %,1,1,27.5 %,312 ms,312 ms,575 ms,1,1,0,0 ms
17,AOI-18,25 %,1,1,26.8 %,305 ms,305 ms,920 ms,1,1,0,0 ms
18,Outside ,0 %,0,0,0 %,0 ms,0 ms,0 ms,0,0,0,0 ms
0,AOI-1,100 %,2,2,100 %,230 ms,230 ms,13 ms,1,1,0,0 ms
1,AOI-2,100 %,2,2,100 %,230 ms,230 ms,13 ms,1,1,0,0 ms
2,AOI-3,0 %,0,0,0 %,0 ms,0 ms,0 ms,0,0,0,0 ms
3,AOI-4,0 %,0,0,0 %,0 ms,0 ms,0 ms,0,0,0,0 ms
4,AOI-5,0 %,0,0,0 %,0 ms,0 ms,0 ms,0,0,0,0 ms
5,AOI-6,0 %,0,0,0 %,0 ms,0 ms,0 ms,0,0,0,0 ms
6,AOI-7,100 %,2,2,100 %,230 ms,230 ms,13 ms,1,1,0,0 ms
7,AOI-8,0 %,0,0,0 %,0 ms,0 ms,0 ms,0,0,0,0 ms
8,AOI-9,0 %,0,0,0 %,0 ms,0 ms,0 ms,0,0,0,0 ms
9,AOI-10,0 %,0,0,0 %,0 ms,0 ms,0 ms,0,0,0,0 ms
10,AOI-11,0 %,0,0,0 %,0 ms,0 ms,0 ms,0,0,0,0 ms
11,AOI-12,0 %,0,0,0 %,0 ms,0 ms,0 ms,0,0,0,0 ms
12,AOI-13,0 %,0,0,0 %,0 ms,0 ms,0 ms,0,0,0,0 ms
13,AOI-14,100 %,2,2,100 %,230 ms,230 ms,13 ms,1,1,0,0 ms
14,AOI-15,0 %,0,0,0 %,0 ms,0 ms,0 ms,0,0,0,0 ms
15,AOI-16,0 %,0,0,0 %,0 ms,0 ms,0 ms,0,0,0,0 ms
16,Outside ,0 %,0,0,0 %,0 ms,0 ms,0 ms,0,0,0,0 ms
0,AOI-1,66.7 %,2,2,62.9 %,268 ms,268 ms,16 ms,1,1,0,0 ms
1,AOI-2,33.3 %,1,1,37.1 %,158 ms,158 ms,300 ms,1,1,0,0 ms
2,AOI-3,66.7 %,2,2,62.9 %,268 ms,268 ms,16 ms,1,1,0,0 ms
3,AOI-4,33.3 %,1,1,37.1 %,158 ms,158 ms,300 ms,1,1,0,0 ms
4,AOI-5,0 %,0,0,0 %,0 ms,0 ms,0 ms,0,0,0,0 ms
5,AOI-6,0 %,0,0,0 %,0 ms,0 ms,0 ms,0,0,0,0 ms
6,AOI-7,0 %,0,0,0 %,0 ms,0 ms,0 ms,0,0,0,0 ms
7,AOI-8,0 %,0,0,0 %,0 ms,0 ms,0 ms,0,0,0,0 ms
8,AOI-9,0 %,0,0,0 %,0 ms,0 ms,0 ms,0,0,0,0 ms
9,AOI-10,100 %,3,3,100 %,426 ms,426 ms,16 ms,1,1,0,0 ms
10,AOI-11,0 %,0,0,0 %,0 ms,0 ms,0 ms,0,0,0,0 ms
11,AOI-12,0 %,0,0,0 %,0 ms,0 ms,0 ms,0,0,0,0 ms
12,AOI-13,0 %,0,0,0 %,0 ms,0 ms,0 ms,0,0,0,0 ms
13,AOI-14,100 %,3,3,100 %,426 ms,426 ms,16 ms,1,1,0,0 ms
14,AOI-15,0 %,0,0,0 %,0 ms,0 ms,0 ms,0,0,0,0 ms
15,AOI-16,0 %,0,0,0 %,0 ms,0 ms,0 ms,0,0,0,0 ms
16,AOI-17,0 %,0,0,0 %,0 ms,0 ms,0 ms,0,0,0,0 ms
17,AOI-18,0 %,0,0,0 %,0 ms,0 ms,0 ms,0,0,0,0 ms
18,Outside ,0 %,0,0,0 %,0 ms,0 ms,0 ms,0,0,0,0 ms
0,AOI-1,66.7 %,2,2,81.9 %,882 ms,882 ms,8 ms,1,1,2,376 ms
1,AOI-2,33.3 %,1,1,18.1 %,195 ms,195 ms,981 ms,1,1,0,0 ms
2,AOI-3,0 %,0,0,0 %,0 ms,0 ms,0 ms,0,0,0,0 ms
3,AOI-4,0 %,0,0,0 %,0 ms,0 ms,0 ms,0,0,0,0 ms
4,AOI-5,0 %,0,0,0 %,0 ms,0 ms,0 ms,0,0,0,0 ms
5,AOI-6,100 %,3,3,100 %,1077 ms,"1,077 ms",8 ms,1,1,2,376 ms
6,AOI-7,33.3 %,1,1,18.1 %,195 ms,195 ms,981 ms,1,1,0,0 ms
7,AOI-8,0 %,0,0,0 %,0 ms,0 ms,0 ms,0,0,0,0 ms
8,AOI-9,0 %,0,0,0 %,0 ms,0 ms,0 ms,0,0,0,0 ms
9,AOI-10,0 %,0,0,0 %,0 ms,0 ms,0 ms,0,0,2,376 ms
10,AOI-11,0 %,0,0,0 %,0 ms,0 ms,0 ms,0,0,0,0 ms
11,AOI-12,0 %,0,0,0 %,0 ms,0 ms,0 ms,0,0,0,0 ms
12,AOI-13,66.7 %,2,2,81.9 %,882 ms,882 ms,8 ms,1,1,0,0 ms
13,AOI-14,33.3 %,1,1,74.3 %,800 ms,800 ms,8 ms,1,1,0,0 ms
14,AOI-15,0 %,0,0,0 %,0 ms,0 ms,0 ms,0,0,0,0 ms
15,Outside ,0 %,0,0,0 %,0 ms,0 ms,0 ms,0,0,0,0 ms
0,AOI-1,66.7 %,2,2,68.8 %,302 ms,302 ms,170 ms,1,1,0,0 ms
1,AOI-2,33.3 %,1,1,31.2 %,137 ms,137 ms,3 ms,1,1,0,0 ms
2,AOI-3,66.7 %,2,2,68.8 %,302 ms,302 ms,170 ms,1,1,0,0 ms
3,AOI-4,33.3 %,1,1,31.2 %,137 ms,137 ms,3 ms,1,1,0,0 ms
4,AOI-5,0 %,0,0,0 %,0 ms,0 ms,0 ms,0,0,0,0 ms
5,AOI-6,0 %,0,0,0 %,0 ms,0 ms,0 ms,0,0,0,0 ms
6,AOI-7,0 %,0,0,0 %,0 ms,0 ms,0 ms,0,0,0,0 ms
7,AOI-8,0 %,0,0,0 %,0 ms,0 ms,0 ms,0,0,0,0 ms
8,AOI-9,0 %,0,0,0 %,0 ms,0 ms,0 ms,0,0,0,0 ms
9,AOI-10,100 %,3,3,100 %,439 ms,439 ms,3 ms,1,1,0,0 ms
10,AOI-11,0 %,0,0,0 %,0 ms,0 ms,0 ms,0,0,0,0 ms
11,AOI-12,0 %,0,0,0 %,0 ms,0 ms,0 ms,0,0,0,0 ms
12,AOI-13,66.7 %,2,2,68.8 %,302 ms,302 ms,170 ms,1,1,0,0 ms
13,AOI-14,0 %,0,0,0 %,0 ms,0 ms,0 ms,0,0,0,0 ms
14,AOI-15,0 %,0,0,0 %,0 ms,0 ms,0 ms,0,0,0,0 ms
15,AOI-16,0 %,0,0,0 %,0 ms,0 ms,0 ms,0,0,0,0 ms
16,AOI-17,33.3 %,1,1,31.2 %,137 ms,137 ms,3 ms,1,1,0,0 ms
17,AOI-18,0 %,0,0,0 %,0 ms,0 ms,0 ms,0,0,0,0 ms
18,Outside ,0 %,0,0,0 %,0 ms,0 ms,0 ms,0,0,0,0 ms
0,AOI-1,0 %,0,0,0 %,0 ms,0 ms,0 ms,0,0,0,0 ms
1,AOI-2,0 %,0,0,0 %,0 ms,0 ms,0 ms,0,0,0,0 ms
2,AOI-3,0 %,0,0,0 %,0 ms,0 ms,0 ms,0,0,0,0 ms
3,AOI-4,0 %,0,0,0 %,0 ms,0 ms,0 ms,0,0,0,0 ms
4,AOI-5,100 %,2,2,100 %,285 ms,285 ms,13 ms,1,1,0,0 ms
5,AOI-6,0 %,0,0,0 %,0 ms,0 ms,0 ms,0,0,0,0 ms
6,AOI-7,0 %,0,0,0 %,0 ms,0 ms,0 ms,0,0,0,0 ms
7,AOI-8,0 %,0,0,0 %,0 ms,0 ms,0 ms,0,0,0,0 ms
8,AOI-9,0 %,0,0,0 %,0 ms,0 ms,0 ms,0,0,0,0 ms
9,AOI-10,0 %,0,0,0 %,0 ms,0 ms,0 ms,0,0,0,0 ms
10,AOI-11,100 %,2,2,100 %,285 ms,285 ms,13 ms,1,1,0,0 ms
11,AOI-12,0 %,0,0,0 %,0 ms,0 ms,0 ms,0,0,0,0 ms
12,AOI-13,0 %,0,0,0 %,0 ms,0 ms,0 ms,0,0,0,0 ms
13,AOI-14,0 %,0,0,0 %,0 ms,0 ms,0 ms,0,0,0,0 ms
14,AOI-15,100 %,2,2,100 %,285 ms,285 ms,13 ms,1,1,0,0 ms
15,Outside ,0 %,0,0,0 %,0 ms,0 ms,0 ms,0,0,0,0 ms
0,AOI-1,57.1 %,4,4,69.6 %,1650 ms,"1,650 ms",880 ms,1,1,3,515 ms
1,AOI-2,0 %,0,0,0 %,0 ms,0 ms,0 ms,0,0,0,0 ms
2,AOI-3,0 %,0,0,0 %,0 ms,0 ms,0 ms,0,0,1,515 ms
3,AOI-4,0 %,0,0,0 %,0 ms,0 ms,0 ms,0,0,0,0 ms
4,AOI-5,85.7 %,6,6,78.7 %,1864 ms,"1,864 ms",8 ms,2,1,3,515 ms
5,AOI-6,71.4 %,5,5,74.7 %,1769 ms,"1,769 ms",742 ms,1,1,3,515 ms
6,AOI-7,0 %,0,0,0 %,0 ms,0 ms,0 ms,0,0,0,0 ms
7,AOI-8,0 %,0,0,0 %,0 ms,0 ms,0 ms,0,0,0,0 ms
8,AOI-9,0 %,0,0,0 %,0 ms,0 ms,0 ms,0,0,0,0 ms
9,AOI-10,0 %,0,0,0 %,0 ms,0 ms,0 ms,0,0,0,0 ms
10,AOI-11,0 %,0,0,0 %,0 ms,0 ms,0 ms,0,0,0,0 ms
11,AOI-12,0 %,0,0,0 %,0 ms,0 ms,0 ms,0,0,0,0 ms
12,AOI-13,0 %,0,0,0 %,0 ms,0 ms,0 ms,0,0,0,0 ms
13,AOI-14,14.3 %,1,1,4 %,95 ms,95 ms,8 ms,1,1,0,0 ms
14,Outside ,14.3 %,1,1,21.3 %,505 ms,505 ms,121 ms,1,1,0,0 ms
