,Unnamed: 0,AOI,Percentage of all fixations,Number of fixations,∅ Number of fixations,Percentage of all fixations durations,Duration of all fixations in ms,∅ Duration of all fixations in ms,Time till the first fixation,Number of visits,Seen number,Clicks count,Time to first click in ms
0,0,AOI-1,100 %,2,2,100 %,302,302 ms,11 ms,1,1,0,0 ms
1,1,AOI-2,0 %,0,0,0 %,0,0 ms,0 ms,0,0,0,0 ms
2,2,AOI-3,0 %,0,0,0 %,0,0 ms,0 ms,0,0,0,0 ms
3,3,AOI-4,0 %,0,0,0 %,0,0 ms,0 ms,0,0,0,0 ms
4,4,AOI-5,0 %,0,0,0 %,0,0 ms,0 ms,0,0,0,0 ms
5,5,AOI-6,100 %,2,2,100 %,302,302 ms,11 ms,1,1,0,0 ms
6,6,AOI-7,0 %,0,0,0 %,0,0 ms,0 ms,0,0,0,0 ms
7,7,AOI-8,0 %,0,0,0 %,0,0 ms,0 ms,0,0,0,0 ms
8,8,AOI-9,0 %,0,0,0 %,0,0 ms,0 ms,0,0,0,0 ms
9,9,AOI-10,0 %,0,0,0 %,0,0 ms,0 ms,0,0,0,0 ms
10,10,AOI-11,0 %,0,0,0 %,0,0 ms,0 ms,0,0,0,0 ms
11,11,AOI-12,0 %,0,0,0 %,0,0 ms,0 ms,0,0,0,0 ms
12,12,AOI-13,0 %,0,0,0 %,0,0 ms,0 ms,0,0,0,0 ms
13,13,AOI-14,100 %,2,2,100 %,302,302 ms,11 ms,1,1,0,0 ms
14,14,AOI-15,0 %,0,0,0 %,0,0 ms,0 ms,0,0,0,0 ms
15,15,Outside ,0 %,0,0,0 %,0,0 ms,0 ms,0,0,0,0 ms
16,0,AOI-1,100 %,2,2,100 %,230,230 ms,13 ms,1,1,0,0 ms
17,1,AOI-2,100 %,2,2,100 %,230,230 ms,13 ms,1,1,0,0 ms
18,2,AOI-3,0 %,0,0,0 %,0,0 ms,0 ms,0,0,0,0 ms
19,3,AOI-4,0 %,0,0,0 %,0,0 ms,0 ms,0,0,0,0 ms
20,4,AOI-5,0 %,0,0,0 %,0,0 ms,0 ms,0,0,0,0 ms
21,5,AOI-6,0 %,0,0,0 %,0,0 ms,0 ms,0,0,0,0 ms
22,6,AOI-7,100 %,2,2,100 %,230,230 ms,13 ms,1,1,0,0 ms
23,7,AOI-8,0 %,0,0,0 %,0,0 ms,0 ms,0,0,0,0 ms
24,8,AOI-9,0 %,0,0,0 %,0,0 ms,0 ms,0,0,0,0 ms
25,9,AOI-10,0 %,0,0,0 %,0,0 ms,0 ms,0,0,0,0 ms
26,10,AOI-11,0 %,0,0,0 %,0,0 ms,0 ms,0,0,0,0 ms
27,11,AOI-12,0 %,0,0,0 %,0,0 ms,0 ms,0,0,0,0 ms
28,12,AOI-13,0 %,0,0,0 %,0,0 ms,0 ms,0,0,0,0 ms
29,13,AOI-14,100 %,2,2,100 %,230,230 ms,13 ms,1,1,0,0 ms
30,14,AOI-15,0 %,0,0,0 %,0,0 ms,0 ms,0,0,0,0 ms
31,15,AOI-16,0 %,0,0,0 %,0,0 ms,0 ms,0,0,0,0 ms
32,16,Outside ,0 %,0,0,0 %,0,0 ms,0 ms,0,0,0,0 ms
33,0,AOI-1,100 %,2,2,100 %,230,230 ms,13 ms,1,1,0,0 ms
34,1,AOI-2,100 %,2,2,100 %,230,230 ms,13 ms,1,1,0,0 ms
35,2,AOI-3,0 %,0,0,0 %,0,0 ms,0 ms,0,0,0,0 ms
36,3,AOI-4,0 %,0,0,0 %,0,0 ms,0 ms,0,0,0,0 ms
37,4,AOI-5,0 %,0,0,0 %,0,0 ms,0 ms,0,0,0,0 ms
38,5,AOI-6,0 %,0,0,0 %,0,0 ms,0 ms,0,0,0,0 ms
39,6,AOI-7,100 %,2,2,100 %,230,230 ms,13 ms,1,1,0,0 ms
40,7,AOI-8,0 %,0,0,0 %,0,0 ms,0 ms,0,0,0,0 ms
41,8,AOI-9,0 %,0,0,0 %,0,0 ms,0 ms,0,0,0,0 ms
42,9,AOI-10,0 %,0,0,0 %,0,0 ms,0 ms,0,0,0,0 ms
43,10,AOI-11,0 %,0,0,0 %,0,0 ms,0 ms,0,0,0,0 ms
44,11,AOI-12,0 %,0,0,0 %,0,0 ms,0 ms,0,0,0,0 ms
45,12,AOI-13,0 %,0,0,0 %,0,0 ms,0 ms,0,0,0,0 ms
46,13,AOI-14,100 %,2,2,100 %,230,230 ms,13 ms,1,1,0,0 ms
47,14,AOI-15,0 %,0,0,0 %,0,0 ms,0 ms,0,0,0,0 ms
48,15,AOI-16,0 %,0,0,0 %,0,0 ms,0 ms,0,0,0,0 ms
49,16,Outside ,0 %,0,0,0 %,0,0 ms,0 ms,0,0,0,0 ms
50,0,AOI-1,66.7 %,2,2,68.8 %,302,302 ms,170 ms,1,1,0,0 ms
51,1,AOI-2,33.3 %,1,1,31.2 %,137,137 ms,3 ms,1,1,0,0 ms
52,2,AOI-3,66.7 %,2,2,68.8 %,302,302 ms,170 ms,1,1,0,0 ms
53,3,AOI-4,33.3 %,1,1,31.2 %,137,137 ms,3 ms,1,1,0,0 ms
54,4,AOI-5,0 %,0,0,0 %,0,0 ms,0 ms,0,0,0,0 ms
55,5,AOI-6,0 %,0,0,0 %,0,0 ms,0 ms,0,0,0,0 ms
56,6,AOI-7,0 %,0,0,0 %,0,0 ms,0 ms,0,0,0,0 ms
57,7,AOI-8,0 %,0,0,0 %,0,0 ms,0 ms,0,0,0,0 ms
58,8,AOI-9,0 %,0,0,0 %,0,0 ms,0 ms,0,0,0,0 ms
59,9,AOI-10,100 %,3,3,100 %,439,439 ms,3 ms,1,1,0,0 ms
60,10,AOI-11,0 %,0,0,0 %,0,0 ms,0 ms,0,0,0,0 ms
61,11,AOI-12,0 %,0,0,0 %,0,0 ms,0 ms,0,0,0,0 ms
62,12,AOI-13,66.7 %,2,2,68.8 %,302,302 ms,170 ms,1,1,0,0 ms
63,13,AOI-14,0 %,0,0,0 %,0,0 ms,0 ms,0,0,0,0 ms
64,14,AOI-15,0 %,0,0,0 %,0,0 ms,0 ms,0,0,0,0 ms
65,15,AOI-16,0 %,0,0,0 %,0,0 ms,0 ms,0,0,0,0 ms
66,16,AOI-17,33.3 %,1,1,31.2 %,137,137 ms,3 ms,1,1,0,0 ms
67,17,AOI-18,0 %,0,0,0 %,0,0 ms,0 ms,0,0,0,0 ms
68,18,Outside ,0 %,0,0,0 %,0,0 ms,0 ms,0,0,0,0 ms
69,0,AOI-1,66.7 %,2,2,62.9 %,268,268 ms,16 ms,1,1,0,0 ms
70,1,AOI-2,33.3 %,1,1,37.1 %,158,158 ms,300 ms,1,1,0,0 ms
71,2,AOI-3,66.7 %,2,2,62.9 %,268,268 ms,16 ms,1,1,0,0 ms
72,3,AOI-4,33.3 %,1,1,37.1 %,158,158 ms,300 ms,1,1,0,0 ms
73,4,AOI-5,0 %,0,0,0 %,0,0 ms,0 ms,0,0,0,0 ms
74,5,AOI-6,0 %,0,0,0 %,0,0 ms,0 ms,0,0,0,0 ms
75,6,AOI-7,0 %,0,0,0 %,0,0 ms,0 ms,0,0,0,0 ms
76,7,AOI-8,0 %,0,0,0 %,0,0 ms,0 ms,0,0,0,0 ms
77,8,AOI-9,0 %,0,0,0 %,0,0 ms,0 ms,0,0,0,0 ms
78,9,AOI-10,100 %,3,3,100 %,426,426 ms,16 ms,1,1,0,0 ms
79,10,AOI-11,0 %,0,0,0 %,0,0 ms,0 ms,0,0,0,0 ms
80,11,AOI-12,0 %,0,0,0 %,0,0 ms,0 ms,0,0,0,0 ms
81,12,AOI-13,0 %,0,0,0 %,0,0 ms,0 ms,0,0,0,0 ms
82,13,AOI-14,100 %,3,3,100 %,426,426 ms,16 ms,1,1,0,0 ms
83,14,AOI-15,0 %,0,0,0 %,0,0 ms,0 ms,0,0,0,0 ms
84,15,AOI-16,0 %,0,0,0 %,0,0 ms,0 ms,0,0,0,0 ms
85,16,AOI-17,0 %,0,0,0 %,0,0 ms,0 ms,0,0,0,0 ms
86,17,AOI-18,0 %,0,0,0 %,0,0 ms,0 ms,0,0,0,0 ms
87,18,Outside ,0 %,0,0,0 %,0,0 ms,0 ms,0,0,0,0 ms
88,0,AOI-1,50 %,1,1,91.3 %,553,553 ms,9 ms,1,1,0,0 ms
89,1,AOI-2,50 %,1,1,91.3 %,553,553 ms,9 ms,1,1,0,0 ms
90,2,AOI-3,0 %,0,0,0 %,0,0 ms,0 ms,0,0,0,0 ms
91,3,AOI-4,0 %,0,0,0 %,0,0 ms,0 ms,0,0,0,0 ms
92,4,AOI-5,0 %,0,0,0 %,0,0 ms,0 ms,0,0,0,0 ms
93,5,AOI-6,0 %,0,0,0 %,0,0 ms,0 ms,0,0,0,0 ms
94,6,AOI-7,100 %,2,2,100 %,606,606 ms,9 ms,1,1,0,0 ms
95,7,AOI-8,0 %,0,0,0 %,0,0 ms,0 ms,0,0,0,0 ms
96,8,AOI-9,0 %,0,0,0 %,0,0 ms,0 ms,0,0,0,0 ms
97,9,AOI-10,0 %,0,0,0 %,0,0 ms,0 ms,0,0,0,0 ms
98,10,AOI-11,0 %,0,0,0 %,0,0 ms,0 ms,0,0,0,0 ms
99,11,AOI-12,50 %,1,1,8.7 %,53,53 ms,596 ms,1,1,0,0 ms
100,12,AOI-13,0 %,0,0,0 %,0,0 ms,0 ms,0,0,0,0 ms
101,13,AOI-14,0 %,0,0,0 %,0,0 ms,0 ms,0,0,0,0 ms
102,14,AOI-15,50 %,1,1,91.3 %,553,553 ms,9 ms,1,1,0,0 ms
103,15,AOI-16,0 %,0,0,0 %,0,0 ms,0 ms,0,0,0,0 ms
104,16,Outside ,0 %,0,0,0 %,0,0 ms,0 ms,0,0,0,0 ms
105,0,AOI-1,66.7 %,2,2,65.6 %,315,315 ms,224 ms,1,1,0,0 ms
106,1,AOI-2,33.3 %,1,1,34.4 %,165,165 ms,3 ms,1,1,0,0 ms
107,2,AOI-3,33.3 %,1,1,52.9 %,254,254 ms,301 ms,1,1,0,0 ms
108,3,AOI-4,33.3 %,1,1,34.4 %,165,165 ms,3 ms,1,1,0,0 ms
109,4,AOI-5,0 %,0,0,0 %,0,0 ms,0 ms,0,0,0,0 ms
110,5,AOI-6,0 %,0,0,0 %,0,0 ms,0 ms,0,0,0,0 ms
111,6,AOI-7,0 %,0,0,0 %,0,0 ms,0 ms,0,0,0,0 ms
112,7,AOI-8,0 %,0,0,0 %,0,0 ms,0 ms,0,0,0,0 ms
113,8,AOI-9,0 %,0,0,0 %,0,0 ms,0 ms,0,0,0,0 ms
114,9,AOI-10,0 %,0,0,0 %,0,0 ms,0 ms,0,0,0,0 ms
115,10,AOI-11,0 %,0,0,0 %,0,0 ms,0 ms,0,0,0,0 ms
116,11,AOI-12,100 %,3,3,100 %,480,480 ms,3 ms,1,1,0,0 ms
117,12,AOI-13,33.3 %,1,1,52.9 %,254,254 ms,301 ms,1,1,0,0 ms
118,13,AOI-14,0 %,0,0,0 %,0,0 ms,0 ms,0,0,0,0 ms
119,14,AOI-15,0 %,0,0,0 %,0,0 ms,0 ms,0,0,0,0 ms
120,15,AOI-16,33.3 %,1,1,12.7 %,61,61 ms,224 ms,1,1,0,0 ms
121,16,AOI-17,33.3 %,1,1,34.4 %,165,165 ms,3 ms,1,1,0,0 ms
122,17,AOI-18,0 %,0,0,0 %,0,0 ms,0 ms,0,0,0,0 ms
123,18,Outside ,0 %,0,0,0 %,0,0 ms,0 ms,0,0,0,0 ms
124,0,AOI-1,0 %,0,0,0 %,0,0 ms,0 ms,0,0,0,0 ms
125,1,AOI-2,0 %,0,0,0 %,0,0 ms,0 ms,0,0,0,0 ms
126,2,AOI-3,0 %,0,0,0 %,0,0 ms,0 ms,0,0,0,0 ms
127,3,AOI-4,0 %,0,0,0 %,0,0 ms,0 ms,0,0,0,0 ms
128,4,AOI-5,100 %,4,4,100 %,1136,"1,136 ms",1 ms,1,1,0,0 ms
129,5,AOI-6,0 %,0,0,0 %,0,0 ms,0 ms,0,0,0,0 ms
130,6,AOI-7,0 %,0,0,0 %,0,0 ms,0 ms,0,0,0,0 ms
131,7,AOI-8,0 %,0,0,0 %,0,0 ms,0 ms,0,0,0,0 ms
132,8,AOI-9,25 %,1,1,32.8 %,373,373 ms,1 ms,1,1,0,0 ms
133,9,AOI-10,75 %,3,3,67.2 %,763,763 ms,390 ms,1,1,0,0 ms
134,10,AOI-11,0 %,0,0,0 %,0,0 ms,0 ms,0,0,0,0 ms
135,11,AOI-12,0 %,0,0,0 %,0,0 ms,0 ms,0,0,0,0 ms
136,12,AOI-13,0 %,0,0,0 %,0,0 ms,0 ms,0,0,0,0 ms
137,13,AOI-14,0 %,0,0,0 %,0,0 ms,0 ms,0,0,0,0 ms
138,14,AOI-15,25 %,1,1,32.8 %,373,373 ms,1 ms,1,1,0,0 ms
139,15,AOI-16,25 %,1,1,12.9 %,146,146 ms,390 ms,1,1,0,0 ms
140,16,AOI-17,25 %,1,1,27.5 %,312,312 ms,575 ms,1,1,0,0 ms
141,17,AOI-18,25 %,1,1,26.8 %,305,305 ms,920 ms,1,1,0,0 ms
142,18,Outside ,0 %,0,0,0 %,0,0 ms,0 ms,0,0,0,0 ms
143,0,AOI-1,100 %,2,2,100 %,230,230 ms,13 ms,1,1,0,0 ms
144,1,AOI-2,100 %,2,2,100 %,230,230 ms,13 ms,1,1,0,0 ms
145,2,AOI-3,0 %,0,0,0 %,0,0 ms,0 ms,0,0,0,0 ms
146,3,AOI-4,0 %,0,0,0 %,0,0 ms,0 ms,0,0,0,0 ms
147,4,AOI-5,0 %,0,0,0 %,0,0 ms,0 ms,0,0,0,0 ms
148,5,AOI-6,0 %,0,0,0 %,0,0 ms,0 ms,0,0,0,0 ms
149,6,AOI-7,100 %,2,2,100 %,230,230 ms,13 ms,1,1,0,0 ms
150,7,AOI-8,0 %,0,0,0 %,0,0 ms,0 ms,0,0,0,0 ms
151,8,AOI-9,0 %,0,0,0 %,0,0 ms,0 ms,0,0,0,0 ms
152,9,AOI-10,0 %,0,0,0 %,0,0 ms,0 ms,0,0,0,0 ms
153,10,AOI-11,0 %,0,0,0 %,0,0 ms,0 ms,0,0,0,0 ms
154,11,AOI-12,0 %,0,0,0 %,0,0 ms,0 ms,0,0,0,0 ms
155,12,AOI-13,0 %,0,0,0 %,0,0 ms,0 ms,0,0,0,0 ms
156,13,AOI-14,100 %,2,2,100 %,230,230 ms,13 ms,1,1,0,0 ms
157,14,AOI-15,0 %,0,0,0 %,0,0 ms,0 ms,0,0,0,0 ms
158,15,AOI-16,0 %,0,0,0 %,0,0 ms,0 ms,0,0,0,0 ms
159,16,Outside ,0 %,0,0,0 %,0,0 ms,0 ms,0,0,0,0 ms
160,0,AOI-1,66.7 %,2,2,62.9 %,268,268 ms,16 ms,1,1,0,0 ms
161,1,AOI-2,33.3 %,1,1,37.1 %,158,158 ms,300 ms,1,1,0,0 ms
162,2,AOI-3,66.7 %,2,2,62.9 %,268,268 ms,16 ms,1,1,0,0 ms
163,3,AOI-4,33.3 %,1,1,37.1 %,158,158 ms,300 ms,1,1,0,0 ms
164,4,AOI-5,0 %,0,0,0 %,0,0 ms,0 ms,0,0,0,0 ms
165,5,AOI-6,0 %,0,0,0 %,0,0 ms,0 ms,0,0,0,0 ms
166,6,AOI-7,0 %,0,0,0 %,0,0 ms,0 ms,0,0,0,0 ms
167,7,AOI-8,0 %,0,0,0 %,0,0 ms,0 ms,0,0,0,0 ms
168,8,AOI-9,0 %,0,0,0 %,0,0 ms,0 ms,0,0,0,0 ms
169,9,AOI-10,100 %,3,3,100 %,426,426 ms,16 ms,1,1,0,0 ms
170,10,AOI-11,0 %,0,0,0 %,0,0 ms,0 ms,0,0,0,0 ms
171,11,AOI-12,0 %,0,0,0 %,0,0 ms,0 ms,0,0,0,0 ms
172,12,AOI-13,0 %,0,0,0 %,0,0 ms,0 ms,0,0,0,0 ms
173,13,AOI-14,100 %,3,3,100 %,426,426 ms,16 ms,1,1,0,0 ms
174,14,AOI-15,0 %,0,0,0 %,0,0 ms,0 ms,0,0,0,0 ms
175,15,AOI-16,0 %,0,0,0 %,0,0 ms,0 ms,0,0,0,0 ms
176,16,AOI-17,0 %,0,0,0 %,0,0 ms,0 ms,0,0,0,0 ms
177,17,AOI-18,0 %,0,0,0 %,0,0 ms,0 ms,0,0,0,0 ms
178,18,Outside ,0 %,0,0,0 %,0,0 ms,0 ms,0,0,0,0 ms
179,0,AOI-1,66.7 %,2,2,62.9 %,268,268 ms,16 ms,1,1,0,0 ms
180,1,AOI-2,33.3 %,1,1,37.1 %,158,158 ms,300 ms,1,1,0,0 ms
181,2,AOI-3,66.7 %,2,2,62.9 %,268,268 ms,16 ms,1,1,0,0 ms
182,3,AOI-4,33.3 %,1,1,37.1 %,158,158 ms,300 ms,1,1,0,0 ms
183,4,AOI-5,0 %,0,0,0 %,0,0 ms,0 ms,0,0,0,0 ms
184,5,AOI-6,0 %,0,0,0 %,0,0 ms,0 ms,0,0,0,0 ms
185,6,AOI-7,0 %,0,0,0 %,0,0 ms,0 ms,0,0,0,0 ms
186,7,AOI-8,0 %,0,0,0 %,0,0 ms,0 ms,0,0,0,0 ms
187,8,AOI-9,0 %,0,0,0 %,0,0 ms,0 ms,0,0,0,0 ms
188,9,AOI-10,100 %,3,3,100 %,426,426 ms,16 ms,1,1,0,0 ms
189,10,AOI-11,0 %,0,0,0 %,0,0 ms,0 ms,0,0,0,0 ms
190,11,AOI-12,0 %,0,0,0 %,0,0 ms,0 ms,0,0,0,0 ms
191,12,AOI-13,0 %,0,0,0 %,0,0 ms,0 ms,0,0,0,0 ms
192,13,AOI-14,100 %,3,3,100 %,426,426 ms,16 ms,1,1,0,0 ms
193,14,AOI-15,0 %,0,0,0 %,0,0 ms,0 ms,0,0,0,0 ms
194,15,AOI-16,0 %,0,0,0 %,0,0 ms,0 ms,0,0,0,0 ms
195,16,AOI-17,0 %,0,0,0 %,0,0 ms,0 ms,0,0,0,0 ms
196,17,AOI-18,0 %,0,0,0 %,0,0 ms,0 ms,0,0,0,0 ms
197,18,Outside ,0 %,0,0,0 %,0,0 ms,0 ms,0,0,0,0 ms
198,0,AOI-1,66.7 %,2,2,68.8 %,302,302 ms,170 ms,1,1,0,0 ms
199,1,AOI-2,33.3 %,1,1,31.2 %,137,137 ms,3 ms,1,1,0,0 ms
200,2,AOI-3,66.7 %,2,2,68.8 %,302,302 ms,170 ms,1,1,0,0 ms
201,3,AOI-4,33.3 %,1,1,31.2 %,137,137 ms,3 ms,1,1,0,0 ms
202,4,AOI-5,0 %,0,0,0 %,0,0 ms,0 ms,0,0,0,0 ms
203,5,AOI-6,0 %,0,0,0 %,0,0 ms,0 ms,0,0,0,0 ms
204,6,AOI-7,0 %,0,0,0 %,0,0 ms,0 ms,0,0,0,0 ms
205,7,AOI-8,0 %,0,0,0 %,0,0 ms,0 ms,0,0,0,0 ms
206,8,AOI-9,0 %,0,0,0 %,0,0 ms,0 ms,0,0,0,0 ms
207,9,AOI-10,100 %,3,3,100 %,439,439 ms,3 ms,1,1,0,0 ms
208,10,AOI-11,0 %,0,0,0 %,0,0 ms,0 ms,0,0,0,0 ms
209,11,AOI-12,0 %,0,0,0 %,0,0 ms,0 ms,0,0,0,0 ms
210,12,AOI-13,66.7 %,2,2,68.8 %,302,302 ms,170 ms,1,1,0,0 ms
211,13,AOI-14,0 %,0,0,0 %,0,0 ms,0 ms,0,0,0,0 ms
212,14,AOI-15,0 %,0,0,0 %,0,0 ms,0 ms,0,0,0,0 ms
213,15,AOI-16,0 %,0,0,0 %,0,0 ms,0 ms,0,0,0,0 ms
214,16,AOI-17,33.3 %,1,1,31.2 %,137,137 ms,3 ms,1,1,0,0 ms
215,17,AOI-18,0 %,0,0,0 %,0,0 ms,0 ms,0,0,0,0 ms
216,18,Outside ,0 %,0,0,0 %,0,0 ms,0 ms,0,0,0,0 ms
217,0,AOI-1,66.7 %,2,2,81.9 %,882,882 ms,8 ms,1,1,2,376 ms
218,1,AOI-2,33.3 %,1,1,18.1 %,195,195 ms,981 ms,1,1,0,0 ms
219,2,AOI-3,0 %,0,0,0 %,0,0 ms,0 ms,0,0,0,0 ms
220,3,AOI-4,0 %,0,0,0 %,0,0 ms,0 ms,0,0,0,0 ms
221,4,AOI-5,0 %,0,0,0 %,0,0 ms,0 ms,0,0,0,0 ms
222,5,AOI-6,100 %,3,3,100 %,1077,"1,077 ms",8 ms,1,1,2,376 ms
223,6,AOI-7,33.3 %,1,1,18.1 %,195,195 ms,981 ms,1,1,0,0 ms
224,7,AOI-8,0 %,0,0,0 %,0,0 ms,0 ms,0,0,0,0 ms
225,8,AOI-9,0 %,0,0,0 %,0,0 ms,0 ms,0,0,0,0 ms
226,9,AOI-10,0 %,0,0,0 %,0,0 ms,0 ms,0,0,2,376 ms
227,10,AOI-11,0 %,0,0,0 %,0,0 ms,0 ms,0,0,0,0 ms
228,11,AOI-12,0 %,0,0,0 %,0,0 ms,0 ms,0,0,0,0 ms
229,12,AOI-13,66.7 %,2,2,81.9 %,882,882 ms,8 ms,1,1,0,0 ms
230,13,AOI-14,33.3 %,1,1,74.3 %,800,800 ms,8 ms,1,1,0,0 ms
231,14,AOI-15,0 %,0,0,0 %,0,0 ms,0 ms,0,0,0,0 ms
232,15,Outside ,0 %,0,0,0 %,0,0 ms,0 ms,0,0,0,0 ms
233,0,AOI-1,66.7 %,2,2,68.8 %,302,302 ms,170 ms,1,1,0,0 ms
234,1,AOI-2,33.3 %,1,1,31.2 %,137,137 ms,3 ms,1,1,0,0 ms
235,2,AOI-3,66.7 %,2,2,68.8 %,302,302 ms,170 ms,1,1,0,0 ms
236,3,AOI-4,33.3 %,1,1,31.2 %,137,137 ms,3 ms,1,1,0,0 ms
237,4,AOI-5,0 %,0,0,0 %,0,0 ms,0 ms,0,0,0,0 ms
238,5,AOI-6,0 %,0,0,0 %,0,0 ms,0 ms,0,0,0,0 ms
239,6,AOI-7,0 %,0,0,0 %,0,0 ms,0 ms,0,0,0,0 ms
240,7,AOI-8,0 %,0,0,0 %,0,0 ms,0 ms,0,0,0,0 ms
241,8,AOI-9,0 %,0,0,0 %,0,0 ms,0 ms,0,0,0,0 ms
242,9,AOI-10,100 %,3,3,100 %,439,439 ms,3 ms,1,1,0,0 ms
243,10,AOI-11,0 %,0,0,0 %,0,0 ms,0 ms,0,0,0,0 ms
244,11,AOI-12,0 %,0,0,0 %,0,0 ms,0 ms,0,0,0,0 ms
245,12,AOI-13,66.7 %,2,2,68.8 %,302,302 ms,170 ms,1,1,0,0 ms
246,13,AOI-14,0 %,0,0,0 %,0,0 ms,0 ms,0,0,0,0 ms
247,14,AOI-15,0 %,0,0,0 %,0,0 ms,0 ms,0,0,0,0 ms
248,15,AOI-16,0 %,0,0,0 %,0,0 ms,0 ms,0,0,0,0 ms
249,16,AOI-17,33.3 %,1,1,31.2 %,137,137 ms,3 ms,1,1,0,0 ms
250,17,AOI-18,0 %,0,0,0 %,0,0 ms,0 ms,0,0,0,0 ms
251,18,Outside ,0 %,0,0,0 %,0,0 ms,0 ms,0,0,0,0 ms
252,0,AOI-1,66.7 %,2,2,65.6 %,315,315 ms,224 ms,1,1,0,0 ms
253,1,AOI-2,33.3 %,1,1,34.4 %,165,165 ms,3 ms,1,1,0,0 ms
254,2,AOI-3,33.3 %,1,1,52.9 %,254,254 ms,301 ms,1,1,0,0 ms
255,3,AOI-4,33.3 %,1,1,34.4 %,165,165 ms,3 ms,1,1,0,0 ms
256,4,AOI-5,0 %,0,0,0 %,0,0 ms,0 ms,0,0,0,0 ms
257,5,AOI-6,0 %,0,0,0 %,0,0 ms,0 ms,0,0,0,0 ms
258,6,AOI-7,0 %,0,0,0 %,0,0 ms,0 ms,0,0,0,0 ms
259,7,AOI-8,0 %,0,0,0 %,0,0 ms,0 ms,0,0,0,0 ms
260,8,AOI-9,0 %,0,0,0 %,0,0 ms,0 ms,0,0,0,0 ms
261,9,AOI-10,0 %,0,0,0 %,0,0 ms,0 ms,0,0,0,0 ms
262,10,AOI-11,0 %,0,0,0 %,0,0 ms,0 ms,0,0,0,0 ms
263,11,AOI-12,100 %,3,3,100 %,480,480 ms,3 ms,1,1,0,0 ms
264,12,AOI-13,33.3 %,1,1,52.9 %,254,254 ms,301 ms,1,1,0,0 ms
265,13,AOI-14,0 %,0,0,0 %,0,0 ms,0 ms,0,0,0,0 ms
266,14,AOI-15,0 %,0,0,0 %,0,0 ms,0 ms,0,0,0,0 ms
267,15,AOI-16,33.3 %,1,1,12.7 %,61,61 ms,224 ms,1,1,0,0 ms
268,16,AOI-17,33.3 %,1,1,34.4 %,165,165 ms,3 ms,1,1,0,0 ms
269,17,AOI-18,0 %,0,0,0 %,0,0 ms,0 ms,0,0,0,0 ms
270,18,Outside ,0 %,0,0,0 %,0,0 ms,0 ms,0,0,0,0 ms
271,0,AOI-1,0 %,0,0,0 %,0,0 ms,0 ms,0,0,0,0 ms
272,1,AOI-2,0 %,0,0,0 %,0,0 ms,0 ms,0,0,0,0 ms
273,2,AOI-3,0 %,0,0,0 %,0,0 ms,0 ms,0,0,0,0 ms
274,3,AOI-4,0 %,0,0,0 %,0,0 ms,0 ms,0,0,0,0 ms
275,4,AOI-5,100 %,2,2,100 %,285,285 ms,13 ms,1,1,0,0 ms
276,5,AOI-6,0 %,0,0,0 %,0,0 ms,0 ms,0,0,0,0 ms
277,6,AOI-7,0 %,0,0,0 %,0,0 ms,0 ms,0,0,0,0 ms
278,7,AOI-8,0 %,0,0,0 %,0,0 ms,0 ms,0,0,0,0 ms
279,8,AOI-9,0 %,0,0,0 %,0,0 ms,0 ms,0,0,0,0 ms
280,9,AOI-10,0 %,0,0,0 %,0,0 ms,0 ms,0,0,0,0 ms
281,10,AOI-11,100 %,2,2,100 %,285,285 ms,13 ms,1,1,0,0 ms
282,11,AOI-12,0 %,0,0,0 %,0,0 ms,0 ms,0,0,0,0 ms
283,12,AOI-13,0 %,0,0,0 %,0,0 ms,0 ms,0,0,0,0 ms
284,13,AOI-14,0 %,0,0,0 %,0,0 ms,0 ms,0,0,0,0 ms
285,14,AOI-15,100 %,2,2,100 %,285,285 ms,13 ms,1,1,0,0 ms
286,15,Outside ,0 %,0,0,0 %,0,0 ms,0 ms,0,0,0,0 ms
287,0,AOI-1,50 %,1,1,16.1 %,81,81 ms,4 ms,1,1,0,0 ms
288,1,AOI-2,50 %,1,1,83.9 %,422,422 ms,100 ms,1,1,0,0 ms
289,2,AOI-3,50 %,1,1,16.1 %,81,81 ms,4 ms,1,1,0,0 ms
290,3,AOI-4,50 %,1,1,83.9 %,422,422 ms,100 ms,1,1,0,0 ms
291,4,AOI-5,0 %,0,0,0 %,0,0 ms,0 ms,0,0,0,0 ms
292,5,AOI-6,0 %,0,0,0 %,0,0 ms,0 ms,0,0,0,0 ms
293,6,AOI-7,0 %,0,0,0 %,0,0 ms,0 ms,0,0,0,0 ms
294,7,AOI-8,0 %,0,0,0 %,0,0 ms,0 ms,0,0,0,0 ms
295,8,AOI-9,0 %,0,0,0 %,0,0 ms,0 ms,0,0,0,0 ms
296,9,AOI-10,100 %,2,2,100 %,503,503 ms,4 ms,1,1,0,0 ms
297,10,AOI-11,0 %,0,0,0 %,0,0 ms,0 ms,0,0,0,0 ms
298,11,AOI-12,0 %,0,0,0 %,0,0 ms,0 ms,0,0,0,0 ms
299,12,AOI-13,0 %,0,0,0 %,0,0 ms,0 ms,0,0,0,0 ms
300,13,AOI-14,0 %,0,0,0 %,0,0 ms,0 ms,0,0,0,0 ms
301,14,AOI-15,0 %,0,0,0 %,0,0 ms,0 ms,0,0,0,0 ms
302,15,AOI-16,100 %,2,2,100 %,503,503 ms,4 ms,1,1,0,0 ms
303,16,AOI-17,0 %,0,0,0 %,0,0 ms,0 ms,0,0,0,0 ms
304,17,AOI-18,0 %,0,0,0 %,0,0 ms,0 ms,0,0,0,0 ms
305,18,Outside ,0 %,0,0,0 %,0,0 ms,0 ms,0,0,0,0 ms
306,0,AOI-1,57.1 %,4,4,69.6 %,1650,"1,650 ms",880 ms,1,1,3,515 ms
307,1,AOI-2,0 %,0,0,0 %,0,0 ms,0 ms,0,0,0,0 ms
308,2,AOI-3,0 %,0,0,0 %,0,0 ms,0 ms,0,0,1,515 ms
309,3,AOI-4,0 %,0,0,0 %,0,0 ms,0 ms,0,0,0,0 ms
310,4,AOI-5,85.7 %,6,6,78.7 %,1864,"1,864 ms",8 ms,2,1,3,515 ms
311,5,AOI-6,71.4 %,5,5,74.7 %,1769,"1,769 ms",742 ms,1,1,3,515 ms
312,6,AOI-7,0 %,0,0,0 %,0,0 ms,0 ms,0,0,0,0 ms
313,7,AOI-8,0 %,0,0,0 %,0,0 ms,0 ms,0,0,0,0 ms
314,8,AOI-9,0 %,0,0,0 %,0,0 ms,0 ms,0,0,0,0 ms
315,9,AOI-10,0 %,0,0,0 %,0,0 ms,0 ms,0,0,0,0 ms
316,10,AOI-11,0 %,0,0,0 %,0,0 ms,0 ms,0,0,0,0 ms
317,11,AOI-12,0 %,0,0,0 %,0,0 ms,0 ms,0,0,0,0 ms
318,12,AOI-13,0 %,0,0,0 %,0,0 ms,0 ms,0,0,0,0 ms
319,13,AOI-14,14.3 %,1,1,4 %,95,95 ms,8 ms,1,1,0,0 ms
320,14,Outside ,14.3 %,1,1,21.3 %,505,505 ms,121 ms,1,1,0,0 ms
321,0,AOI-1,66.7 %,2,2,65.6 %,315,315 ms,224 ms,1,1,0,0 ms
322,1,AOI-2,33.3 %,1,1,34.4 %,165,165 ms,3 ms,1,1,0,0 ms
323,2,AOI-3,33.3 %,1,1,52.9 %,254,254 ms,301 ms,1,1,0,0 ms
324,3,AOI-4,33.3 %,1,1,34.4 %,165,165 ms,3 ms,1,1,0,0 ms
325,4,AOI-5,0 %,0,0,0 %,0,0 ms,0 ms,0,0,0,0 ms
326,5,AOI-6,0 %,0,0,0 %,0,0 ms,0 ms,0,0,0,0 ms
327,6,AOI-7,0 %,0,0,0 %,0,0 ms,0 ms,0,0,0,0 ms
328,7,AOI-8,0 %,0,0,0 %,0,0 ms,0 ms,0,0,0,0 ms
329,8,AOI-9,0 %,0,0,0 %,0,0 ms,0 ms,0,0,0,0 ms
330,9,AOI-10,0 %,0,0,0 %,0,0 ms,0 ms,0,0,0,0 ms
331,10,AOI-11,0 %,0,0,0 %,0,0 ms,0 ms,0,0,0,0 ms
332,11,AOI-12,100 %,3,3,100 %,480,480 ms,3 ms,1,1,0,0 ms
333,12,AOI-13,33.3 %,1,1,52.9 %,254,254 ms,301 ms,1,1,0,0 ms
334,13,AOI-14,0 %,0,0,0 %,0,0 ms,0 ms,0,0,0,0 ms
335,14,AOI-15,0 %,0,0,0 %,0,0 ms,0 ms,0,0,0,0 ms
336,15,AOI-16,33.3 %,1,1,12.7 %,61,61 ms,224 ms,1,1,0,0 ms
337,16,AOI-17,33.3 %,1,1,34.4 %,165,165 ms,3 ms,1,1,0,0 ms
338,17,AOI-18,0 %,0,0,0 %,0,0 ms,0 ms,0,0,0,0 ms
339,18,Outside ,0 %,0,0,0 %,0,0 ms,0 ms,0,0,0,0 ms
340,0,AOI-1,100 %,2,2,100 %,302,302 ms,11 ms,1,1,0,0 ms
341,1,AOI-2,0 %,0,0,0 %,0,0 ms,0 ms,0,0,0,0 ms
342,2,AOI-3,0 %,0,0,0 %,0,0 ms,0 ms,0,0,0,0 ms
343,3,AOI-4,0 %,0,0,0 %,0,0 ms,0 ms,0,0,0,0 ms
344,4,AOI-5,0 %,0,0,0 %,0,0 ms,0 ms,0,0,0,0 ms
345,5,AOI-6,100 %,2,2,100 %,302,302 ms,11 ms,1,1,0,0 ms
346,6,AOI-7,0 %,0,0,0 %,0,0 ms,0 ms,0,0,0,0 ms
347,7,AOI-8,0 %,0,0,0 %,0,0 ms,0 ms,0,0,0,0 ms
348,8,AOI-9,0 %,0,0,0 %,0,0 ms,0 ms,0,0,0,0 ms
349,9,AOI-10,0 %,0,0,0 %,0,0 ms,0 ms,0,0,0,0 ms
350,10,AOI-11,0 %,0,0,0 %,0,0 ms,0 ms,0,0,0,0 ms
351,11,AOI-12,0 %,0,0,0 %,0,0 ms,0 ms,0,0,0,0 ms
352,12,AOI-13,0 %,0,0,0 %,0,0 ms,0 ms,0,0,0,0 ms
353,13,AOI-14,100 %,2,2,100 %,302,302 ms,11 ms,1,1,0,0 ms
354,14,AOI-15,0 %,0,0,0 %,0,0 ms,0 ms,0,0,0,0 ms
355,15,Outside ,0 %,0,0,0 %,0,0 ms,0 ms,0,0,0,0 ms
356,0,AOI-1,50 %,1,1,16.1 %,81,81 ms,4 ms,1,1,0,0 ms
357,1,AOI-2,50 %,1,1,83.9 %,422,422 ms,100 ms,1,1,0,0 ms
358,2,AOI-3,50 %,1,1,16.1 %,81,81 ms,4 ms,1,1,0,0 ms
359,3,AOI-4,50 %,1,1,83.9 %,422,422 ms,100 ms,1,1,0,0 ms
360,4,AOI-5,0 %,0,0,0 %,0,0 ms,0 ms,0,0,0,0 ms
361,5,AOI-6,0 %,0,0,0 %,0,0 ms,0 ms,0,0,0,0 ms
362,6,AOI-7,0 %,0,0,0 %,0,0 ms,0 ms,0,0,0,0 ms
363,7,AOI-8,0 %,0,0,0 %,0,0 ms,0 ms,0,0,0,0 ms
364,8,AOI-9,0 %,0,0,0 %,0,0 ms,0 ms,0,0,0,0 ms
365,9,AOI-10,100 %,2,2,100 %,503,503 ms,4 ms,1,1,0,0 ms
366,10,AOI-11,0 %,0,0,0 %,0,0 ms,0 ms,0,0,0,0 ms
367,11,AOI-12,0 %,0,0,0 %,0,0 ms,0 ms,0,0,0,0 ms
368,12,AOI-13,0 %,0,0,0 %,0,0 ms,0 ms,0,0,0,0 ms
369,13,AOI-14,0 %,0,0,0 %,0,0 ms,0 ms,0,0,0,0 ms
370,14,AOI-15,0 %,0,0,0 %,0,0 ms,0 ms,0,0,0,0 ms
371,15,AOI-16,100 %,2,2,100 %,503,503 ms,4 ms,1,1,0,0 ms
372,16,AOI-17,0 %,0,0,0 %,0,0 ms,0 ms,0,0,0,0 ms
373,17,AOI-18,0 %,0,0,0 %,0,0 ms,0 ms,0,0,0,0 ms
374,18,Outside ,0 %,0,0,0 %,0,0 ms,0 ms,0,0,0,0 ms
