AOI;Percentage of all fixations;Number of fixations;∅ Number of fixations;Percentage of all fixations durations;Duration of all fixations in ms;∅ Duration of all fixations in ms;Time till the first fixation;Number of visits;Seen number;Clicks count;Time to first click in ms
AOI-1;66.7 %;2;2;62.9 %;268 ms;268 ms;16 ms;1;1;0;0 ms
AOI-2;33.3 %;1;1;37.1 %;158 ms;158 ms;300 ms;1;1;0;0 ms
AOI-3;66.7 %;2;2;62.9 %;268 ms;268 ms;16 ms;1;1;0;0 ms
AOI-4;33.3 %;1;1;37.1 %;158 ms;158 ms;300 ms;1;1;0;0 ms
AOI-5;0 %;0;0;0 %;0 ms;0 ms;0 ms;0;0;0;0 ms
AOI-6;0 %;0;0;0 %;0 ms;0 ms;0 ms;0;0;0;0 ms
AOI-7;0 %;0;0;0 %;0 ms;0 ms;0 ms;0;0;0;0 ms
AOI-8;0 %;0;0;0 %;0 ms;0 ms;0 ms;0;0;0;0 ms
AOI-9;0 %;0;0;0 %;0 ms;0 ms;0 ms;0;0;0;0 ms
AOI-10;100 %;3;3;100 %;426 ms;426 ms;16 ms;1;1;0;0 ms
AOI-11;0 %;0;0;0 %;0 ms;0 ms;0 ms;0;0;0;0 ms
AOI-12;0 %;0;0;0 %;0 ms;0 ms;0 ms;0;0;0;0 ms
AOI-13;0 %;0;0;0 %;0 ms;0 ms;0 ms;0;0;0;0 ms
AOI-14;100 %;3;3;100 %;426 ms;426 ms;16 ms;1;1;0;0 ms
AOI-15;0 %;0;0;0 %;0 ms;0 ms;0 ms;0;0;0;0 ms
AOI-16;0 %;0;0;0 %;0 ms;0 ms;0 ms;0;0;0;0 ms
AOI-17;0 %;0;0;0 %;0 ms;0 ms;0 ms;0;0;0;0 ms
AOI-18;0 %;0;0;0 %;0 ms;0 ms;0 ms;0;0;0;0 ms
Outside ;0 %;0;0;0 %;0 ms;0 ms;0 ms;0;0;0;0 ms
