AOI;Percentage of all fixations;Number of fixations;∅ Number of fixations;Percentage of all fixations durations;Duration of all fixations in ms;∅ Duration of all fixations in ms;Time till the first fixation;Number of visits;Seen number;Clicks count;Time to first click in ms
AOI-1;57.1 %;4;4;69.6 %;1650 ms;1,650 ms;880 ms;1;1;3;515 ms
AOI-2;0 %;0;0;0 %;0 ms;0 ms;0 ms;0;0;0;0 ms
AOI-3;0 %;0;0;0 %;0 ms;0 ms;0 ms;0;0;1;515 ms
AOI-4;0 %;0;0;0 %;0 ms;0 ms;0 ms;0;0;0;0 ms
AOI-5;85.7 %;6;6;78.7 %;1864 ms;1,864 ms;8 ms;2;1;3;515 ms
AOI-6;71.4 %;5;5;74.7 %;1769 ms;1,769 ms;742 ms;1;1;3;515 ms
AOI-7;0 %;0;0;0 %;0 ms;0 ms;0 ms;0;0;0;0 ms
AOI-8;0 %;0;0;0 %;0 ms;0 ms;0 ms;0;0;0;0 ms
AOI-9;0 %;0;0;0 %;0 ms;0 ms;0 ms;0;0;0;0 ms
AOI-10;0 %;0;0;0 %;0 ms;0 ms;0 ms;0;0;0;0 ms
AOI-11;0 %;0;0;0 %;0 ms;0 ms;0 ms;0;0;0;0 ms
AOI-12;0 %;0;0;0 %;0 ms;0 ms;0 ms;0;0;0;0 ms
AOI-13;0 %;0;0;0 %;0 ms;0 ms;0 ms;0;0;0;0 ms
AOI-14;14.3 %;1;1;4 %;95 ms;95 ms;8 ms;1;1;0;0 ms
Outside ;14.3 %;1;1;21.3 %;505 ms;505 ms;121 ms;1;1;0;0 ms
