AOI;Percentage of all fixations;Number of fixations;∅ Number of fixations;Percentage of all fixations durations;Duration of all fixations in ms;∅ Duration of all fixations in ms;Time till the first fixation;Number of visits;Seen number;Clicks count;Time to first click in ms
AOI-1;0 %;0;0;0 %;0 ms;0 ms;0 ms;0;0;0;0 ms
AOI-2;0 %;0;0;0 %;0 ms;0 ms;0 ms;0;0;0;0 ms
AOI-3;0 %;0;0;0 %;0 ms;0 ms;0 ms;0;0;0;0 ms
AOI-4;0 %;0;0;0 %;0 ms;0 ms;0 ms;0;0;0;0 ms
AOI-5;100 %;2;2;100 %;823 ms;823 ms;15 ms;1;1;0;0 ms
AOI-6;0 %;0;0;0 %;0 ms;0 ms;0 ms;0;0;0;0 ms
AOI-7;0 %;0;0;0 %;0 ms;0 ms;0 ms;0;0;0;0 ms
AOI-8;0 %;0;0;0 %;0 ms;0 ms;0 ms;0;0;0;0 ms
AOI-9;100 %;2;2;100 %;823 ms;823 ms;15 ms;1;1;0;0 ms
AOI-10;0 %;0;0;0 %;0 ms;0 ms;0 ms;0;0;0;0 ms
AOI-11;0 %;0;0;0 %;0 ms;0 ms;0 ms;0;0;0;0 ms
AOI-12;0 %;0;0;0 %;0 ms;0 ms;0 ms;0;0;0;0 ms
AOI-13;0 %;0;0;0 %;0 ms;0 ms;0 ms;0;0;0;0 ms
AOI-14;0 %;0;0;0 %;0 ms;0 ms;0 ms;0;0;0;0 ms
AOI-15;50 %;1;1;71.1 %;585 ms;585 ms;15 ms;1;1;0;0 ms
AOI-16;50 %;1;1;71.1 %;585 ms;585 ms;15 ms;1;1;0;0 ms
Outside ;0 %;0;0;0 %;0 ms;0 ms;0 ms;0;0;0;0 ms
