AOI;Percentage of all fixations;Number of fixations;∅ Number of fixations;Percentage of all fixations durations;Duration of all fixations in ms;∅ Duration of all fixations in ms;Time till the first fixation;Number of visits;Seen number;Clicks count;Time to first click in ms
AOI-1;25 %;1;1;24.7 %;134 ms;134 ms;476 ms;1;1;0;0 ms
AOI-2;50 %;2;2;11.8 %;64 ms;64 ms;6 ms;1;1;0;0 ms
AOI-3;25 %;1;1;63.5 %;344 ms;344 ms;110 ms;1;1;0;0 ms
AOI-4;25 %;1;1;63.5 %;344 ms;344 ms;110 ms;1;1;0;0 ms
AOI-5;0 %;0;0;0 %;0 ms;0 ms;0 ms;0;0;0;0 ms
AOI-6;0 %;0;0;0 %;0 ms;0 ms;0 ms;0;0;0;0 ms
AOI-7;0 %;0;0;0 %;0 ms;0 ms;0 ms;0;0;0;0 ms
AOI-8;0 %;0;0;0 %;0 ms;0 ms;0 ms;0;0;0;0 ms
AOI-9;100 %;4;4;100 %;542 ms;542 ms;6 ms;1;1;0;0 ms
AOI-10;50 %;2;2;11.8 %;64 ms;64 ms;6 ms;1;1;0;0 ms
AOI-11;0 %;0;0;0 %;0 ms;0 ms;0 ms;0;0;0;0 ms
AOI-12;0 %;0;0;0 %;0 ms;0 ms;0 ms;0;0;0;0 ms
AOI-13;0 %;0;0;0 %;0 ms;0 ms;0 ms;0;0;0;0 ms
AOI-14;50 %;2;2;88.2 %;478 ms;478 ms;110 ms;1;1;0;0 ms
AOI-15;0 %;0;0;0 %;0 ms;0 ms;0 ms;0;0;0;0 ms
AOI-16;0 %;0;0;0 %;0 ms;0 ms;0 ms;0;0;0;0 ms
AOI-17;0 %;0;0;0 %;0 ms;0 ms;0 ms;0;0;0;0 ms
AOI-18;0 %;0;0;0 %;0 ms;0 ms;0 ms;0;0;0;0 ms
Outside ;0 %;0;0;0 %;0 ms;0 ms;0 ms;0;0;0;0 ms
