AOI;Percentage of all fixations;Number of fixations;∅ Number of fixations;Percentage of all fixations durations;Duration of all fixations in ms;∅ Duration of all fixations in ms;Time till the first fixation;Number of visits;Seen number;Clicks count;Time to first click in ms
AOI-1;66.7 %;2;2;65.6 %;315 ms;315 ms;224 ms;1;1;0;0 ms
AOI-2;33.3 %;1;1;34.4 %;165 ms;165 ms;3 ms;1;1;0;0 ms
AOI-3;33.3 %;1;1;52.9 %;254 ms;254 ms;301 ms;1;1;0;0 ms
AOI-4;33.3 %;1;1;34.4 %;165 ms;165 ms;3 ms;1;1;0;0 ms
AOI-5;0 %;0;0;0 %;0 ms;0 ms;0 ms;0;0;0;0 ms
AOI-6;0 %;0;0;0 %;0 ms;0 ms;0 ms;0;0;0;0 ms
AOI-7;0 %;0;0;0 %;0 ms;0 ms;0 ms;0;0;0;0 ms
AOI-8;0 %;0;0;0 %;0 ms;0 ms;0 ms;0;0;0;0 ms
AOI-9;0 %;0;0;0 %;0 ms;0 ms;0 ms;0;0;0;0 ms
AOI-10;0 %;0;0;0 %;0 ms;0 ms;0 ms;0;0;0;0 ms
AOI-11;0 %;0;0;0 %;0 ms;0 ms;0 ms;0;0;0;0 ms
AOI-12;100 %;3;3;100 %;480 ms;480 ms;3 ms;1;1;0;0 ms
AOI-13;33.3 %;1;1;52.9 %;254 ms;254 ms;301 ms;1;1;0;0 ms
AOI-14;0 %;0;0;0 %;0 ms;0 ms;0 ms;0;0;0;0 ms
AOI-15;0 %;0;0;0 %;0 ms;0 ms;0 ms;0;0;0;0 ms
AOI-16;33.3 %;1;1;12.7 %;61 ms;61 ms;224 ms;1;1;0;0 ms
AOI-17;33.3 %;1;1;34.4 %;165 ms;165 ms;3 ms;1;1;0;0 ms
AOI-18;0 %;0;0;0 %;0 ms;0 ms;0 ms;0;0;0;0 ms
Outside ;0 %;0;0;0 %;0 ms;0 ms;0 ms;0;0;0;0 ms
