AOI;Percentage of all fixations;Number of fixations;∅ Number of fixations;Percentage of all fixations durations;Duration of all fixations in ms;∅ Duration of all fixations in ms;Time till the first fixation;Number of visits;Seen number;Clicks count;Time to first click in ms
AOI-1;50 %;1;1;16.1 %;81 ms;81 ms;4 ms;1;1;0;0 ms
AOI-2;50 %;1;1;83.9 %;422 ms;422 ms;100 ms;1;1;0;0 ms
AOI-3;50 %;1;1;16.1 %;81 ms;81 ms;4 ms;1;1;0;0 ms
AOI-4;50 %;1;1;83.9 %;422 ms;422 ms;100 ms;1;1;0;0 ms
AOI-5;0 %;0;0;0 %;0 ms;0 ms;0 ms;0;0;0;0 ms
AOI-6;0 %;0;0;0 %;0 ms;0 ms;0 ms;0;0;0;0 ms
AOI-7;0 %;0;0;0 %;0 ms;0 ms;0 ms;0;0;0;0 ms
AOI-8;0 %;0;0;0 %;0 ms;0 ms;0 ms;0;0;0;0 ms
AOI-9;0 %;0;0;0 %;0 ms;0 ms;0 ms;0;0;0;0 ms
AOI-10;100 %;2;2;100 %;503 ms;503 ms;4 ms;1;1;0;0 ms
AOI-11;0 %;0;0;0 %;0 ms;0 ms;0 ms;0;0;0;0 ms
AOI-12;0 %;0;0;0 %;0 ms;0 ms;0 ms;0;0;0;0 ms
AOI-13;0 %;0;0;0 %;0 ms;0 ms;0 ms;0;0;0;0 ms
AOI-14;0 %;0;0;0 %;0 ms;0 ms;0 ms;0;0;0;0 ms
AOI-15;0 %;0;0;0 %;0 ms;0 ms;0 ms;0;0;0;0 ms
AOI-16;100 %;2;2;100 %;503 ms;503 ms;4 ms;1;1;0;0 ms
AOI-17;0 %;0;0;0 %;0 ms;0 ms;0 ms;0;0;0;0 ms
AOI-18;0 %;0;0;0 %;0 ms;0 ms;0 ms;0;0;0;0 ms
Outside ;0 %;0;0;0 %;0 ms;0 ms;0 ms;0;0;0;0 ms
