AOI;Percentage of all fixations;Number of fixations;∅ Number of fixations;Percentage of all fixations durations;Duration of all fixations in ms;∅ Duration of all fixations in ms;Time till the first fixation;Number of visits;Seen number;Clicks count;Time to first click in ms
AOI-1;0 %;0;0;0 %;0 ms;0 ms;0 ms;0;0;0;0 ms
AOI-2;0 %;0;0;0 %;0 ms;0 ms;0 ms;0;0;0;0 ms
AOI-3;0 %;0;0;0 %;0 ms;0 ms;0 ms;0;0;0;0 ms
AOI-4;0 %;0;0;0 %;0 ms;0 ms;0 ms;0;0;0;0 ms
AOI-5;100 %;3;3;100 %;606 ms;606 ms;1 ms;1;1;0;0 ms
AOI-6;0 %;0;0;0 %;0 ms;0 ms;0 ms;0;0;0;0 ms
AOI-7;0 %;0;0;0 %;0 ms;0 ms;0 ms;0;0;0;0 ms
AOI-8;0 %;0;0;0 %;0 ms;0 ms;0 ms;0;0;0;0 ms
AOI-9;0 %;0;0;0 %;0 ms;0 ms;0 ms;0;0;0;0 ms
AOI-10;100 %;3;3;100 %;606 ms;606 ms;1 ms;1;1;0;0 ms
AOI-11;0 %;0;0;0 %;0 ms;0 ms;0 ms;0;0;0;0 ms
AOI-12;0 %;0;0;0 %;0 ms;0 ms;0 ms;0;0;0;0 ms
AOI-13;0 %;0;0;0 %;0 ms;0 ms;0 ms;0;0;0;0 ms
AOI-14;0 %;0;0;0 %;0 ms;0 ms;0 ms;0;0;0;0 ms
AOI-15;66.7 %;2;2;44.4 %;269 ms;269 ms;1 ms;1;1;0;0 ms
AOI-16;33.3 %;1;1;55.6 %;337 ms;337 ms;286 ms;1;1;0;0 ms
AOI-17;33.3 %;1;1;55.6 %;337 ms;337 ms;286 ms;1;1;0;0 ms
Outside ;0 %;0;0;0 %;0 ms;0 ms;0 ms;0;0;0;0 ms
